 28.71701 10.0092 18.39909 1.043119 10.17211 15.27405 15.47767 16.29332 18.48152 24.76476 20.31137 15.36131 8.54513 25.1426 18.63403 15.61101 4.414398 16.39125 12.05722 10.7475 28.56697 3.833365 1.89884 11.84985 14.01574 4.72431 25.76563 25.2883 7.196333 21.61318 18.79499 22.19297 14.37934 13.53343 23.38335 8.241527 13.34249 21.14257 27.66702 8.385545 28.07416 20.8674 9.449831 4.240514 14.95974 17.84228 26.39811 3.416162 4.882088 26.08862 20.66472 19.6045 7.59559 10.45055 23.359 5.55596 18.02154 24.75186 5.023613 20.32624 14.63395 9.310819 8.872746 19.86023 17.46394 28.02764 12.05189 25.72813 20.48934 3.437078 24.86212 15.07899 8.101733 18.40454 7.284979 1.881078 23.88776 15.97334 17.75109 27.22646 11.97446 16.47704 23.52427 14.96673 14.10493 13.75202 24.94689 9.069868 16.80217 0.5265047 28.6876 8.349667 13.45726 2.092637 23.32146 24.11543 2.767495 1.384584 6.776704 12.15548
 8.206358 4.039371 6.383019 11.21645 17.02125 19.96718 22.61588 19.18016 7.646316 4.210894 27.13688 26.846 2.597006 5.883068 25.47877 19.56221 18.43933 28.1122 18.49727 11.66769 8.132936 19.25152 18.64873 5.950015 0.7154923 9.014724 8.917006 22.95888 3.264936 28.19311 16.41074 20.3473 25.87724 25.47892 15.87686 15.2149 24.07627 10.89722 28.29178 13.88746 24.82411 12.35381 26.39966 17.59949 16.37817 5.546789 5.392676 18.86036 25.04692 8.485271 19.41494 13.99831 24.44184 27.62575 9.755802 10.19162 25.75778 21.65028 19.47864 22.01442 24.16063 9.53408 25.3045 8.616328 25.89838 29.3052 28.89137 29.33024 23.32465 15.74741 24.12685 9.197755 21.80513 3.876775 9.180539 6.777395 27.4693 14.35587 22.34802 26.10121 13.71158 9.006126 6.596369 16.8622 14.71941 22.09888 25.19828 1.594438 26.62669 3.040012 11.54909 28.85464 27.84223 11.08128 9.945751 12.95607 26.45537 3.390442 14.41559 13.58711
 24.97275 18.23672 19.2587 5.622291 14.57839 6.691553 25.47773 20.32687 20.12633 13.23708 21.92732 6.800713 19.01767 24.47725 5.394495 8.82471 3.580107 25.48718 12.5449 24.37968 24.30412 12.48245 9.943196 14.81208 26.10838 10.86405 19.62214 8.125555 25.63178 29.08391 23.68071 25.6929 17.20222 17.75125 1.662736 10.7696 17.40781 19.54252 18.08973 7.766992 8.561724 23.1274 25.18999 29.45941 12.35307 22.14024 22.02877 27.88481 17.36222 25.15077 6.226086 12.08617 22.35929 1.115866 12.42922 9.405764 0.7771975 4.833167 16.81356 9.93611 14.7639 28.38393 21.08717 17.37522 23.99275 26.15693 5.565616 3.271539 28.18359 29.18091 1.027742 26.75069 14.70728 16.77348 29.29022 5.534098 10.25829 25.50031 13.93463 21.91649 14.30774 22.10239 21.94227 26.83524 5.963712 14.0016 25.35008 14.65132 29.17953 8.448549 2.236655 12.81414 13.98683 5.041887 9.806258 17.77131 10.98105 7.45701 0.9878299 16.98768
 7.654561 26.39177 5.312593 23.31162 23.01215 20.25871 28.24635 23.30741 4.38745 1.275731 22.10929 16.43665 21.66641 3.756238 25.37486 0.546649 13.06575 11.27056 5.515533 14.8047 20.69303 7.741105 11.59243 11.49012 11.53276 2.752453 26.68439 15.39389 4.15304 18.65766 2.18865 19.70416 22.99706 17.2699 21.21321 14.18794 3.862864 14.50918 8.46514 5.267402 14.28419 13.71581 4.224477 19.082 17.66372 10.51847 6.203114 21.67288 3.210401 2.457883 24.12614 23.10792 18.68834 7.929795 26.66459 1.514909 29.03321 11.66683 28.8798 23.22904 7.887813 5.329412 28.70809 18.86865 16.3206 6.921455 9.302148 16.89084 13.6044 26.673 10.86487 28.38649 12.11085 20.54489 14.83511 1.878447 24.90545 28.92495 10.73717 8.908416 22.03733 21.55967 21.88307 24.05598 3.56669 0.8258005 5.015869 2.954384 10.60675 20.07303 4.047883 28.99307 18.12947 20.09386 23.62085 28.21043 13.80977 0.4892617 2.27201 21.68078
 27.3428 7.975442 7.126635 19.241 22.32459 5.017363 20.12251 20.83625 7.382261 5.193438 1.565423 4.384418 25.88447 8.181342 4.287544 8.525542 19.90654 9.659906 7.037996 10.05387 12.9183 16.56844 15.49336 16.0018 8.530662 24.50229 14.79461 20.82318 20.98176 15.62842 10.50693 2.69862 27.25753 28.19958 14.07771 5.936172 14.09559 5.031827 20.02608 23.39469 25.01994 23.19973 23.57765 21.70796 27.50176 28.96975 20.55168 25.5184 19.71437 12.79624 15.15136 10.63488 21.58999 7.079484 2.536528 12.67158 7.416677 3.488477 15.70245 26.13512 20.71017 17.51841 15.97939 1.043077 21.75493 8.556631 2.694011 8.764419 9.544347 11.53187 27.45995 2.168499 25.72428 0.7432422 5.950447 14.79465 7.975999 2.598596 18.7188 16.29438 23.392 12.71374 15.33323 14.33869 11.59091 2.757701 19.73344 21.05682 23.24492 22.25466 3.213958 2.081405 19.71394 22.70798 18.83088 23.63503 18.03277 6.682623 18.06225 24.47872
 6.798006 0.6886067 18.97041 19.27763 10.44223 23.86296 14.95295 21.81845 18.5738 1.097813 2.635438 27.42448 27.35833 24.23898 27.48592 22.41732 14.04338 10.14946 0.6096818 9.754326 23.30522 14.63876 11.98669 20.40959 6.159506 20.3839 17.00606 13.23478 27.14557 18.00231 13.53053 16.86909 10.95694 9.053779 8.985795 6.347477 13.49479 0.8633893 17.32795 28.63794 11.74562 16.28514 27.39184 28.31782 9.82689 7.536948 16.23085 27.94547 18.1167 11.10149 8.536376 10.48404 11.99843 17.15079 15.6878 8.342784 16.39718 19.00735 23.92174 7.161662 24.75853 27.20408 22.84292 7.387696 7.73667 27.95262 8.116843 11.98758 21.48354 26.18562 24.1703 25.80484 3.161314 26.30377 27.43203 5.720005 10.95797 27.49917 3.884827 6.318397 27.21142 25.22223 20.9787 19.69675 18.05021 10.82915 13.41679 10.88362 4.530286 26.10394 6.008425 7.907947 11.86561 14.66693 24.02467 15.06563 10.13534 22.77807 20.26978 21.18119
 15.10273 29.40332 29.01832 23.39156 20.67945 12.30774 12.7825 27.19225 0.8759799 15.63626 7.160356 23.02847 7.209121 19.96907 24.62263 14.9016 4.085682 7.046867 14.61877 8.007199 5.761189 28.65448 15.23073 27.50433 23.91604 2.673134 26.2052 16.88593 10.56201 22.35076 23.1953 9.781793 29.29781 28.05733 5.927402 24.24128 25.04241 10.08624 2.753729 10.29818 7.06065 15.38947 11.09727 18.95704 26.96891 14.28816 20.47531 15.31452 8.989647 27.75772 19.22016 18.41403 27.60017 15.29382 28.567 15.15719 1.181716 1.596585 20.0247 23.54043 4.29768 14.41317 23.43046 17.59195 6.691674 1.72654 15.96643 3.003136 23.38059 4.671701 13.04745 20.80376 14.73853 17.3726 17.6192 15.13055 23.18045 2.57822 10.10777 15.00039 3.90512 25.28445 3.54341 24.30398 18.29329 16.7049 26.12163 25.64069 27.56704 28.41583 28.72118 14.83441 29.46514 28.47471 5.471469 7.982267 1.153109 26.30927 24.83303 14.30917
 22.08497 3.510343 7.825724 18.41185 17.40363 15.28071 16.2482 1.906615 28.03917 24.44544 27.20363 8.228365 6.459812 20.4168 26.23601 9.044859 20.59564 12.63115 16.72675 8.149983 8.578158 13.05025 7.362207 13.7189 13.59624 7.845267 24.60956 3.593603 27.66129 11.15924 8.239217 11.23707 9.378045 27.28317 12.84107 13.36477 9.903412 15.08071 0.7343333 16.16822 8.856445 20.45751 26.56614 16.28354 10.12509 21.06608 14.16478 29.26497 11.99977 12.99787 1.452273 12.0636 26.48719 22.53809 12.04162 6.791019 6.523878 2.230951 26.17085 23.82811 25.31246 14.39595 21.42838 5.819438 19.13325 27.62603 19.37163 1.127634 25.57202 19.59379 13.56881 12.52586 15.57351 26.26495 12.41608 6.570635 16.42655 14.61924 23.73972 17.98294 12.87593 19.45964 8.828775 20.83857 4.281412 3.271771 27.6748 5.35264 22.72164 13.13855 24.67714 12.64367 2.926741 4.210172 18.15376 1.957759 21.07593 18.02395 1.479342 6.946622
 25.84146 16.80519 9.890341 11.23112 1.093889 22.02816 29.1594 15.05652 27.94335 16.55111 16.44863 11.73867 16.10683 17.30739 5.063 27.98019 20.27882 16.37577 24.66323 20.50661 0.6587756 28.31628 5.35228 15.68078 23.93366 8.355997 23.14868 9.955465 28.11347 9.217582 14.23386 9.088377 13.01024 12.8835 19.94744 1.181619 24.53022 11.28982 26.32041 23.14918 3.336428 2.743551 5.953742 29.32256 4.703758 15.33494 13.93461 21.93686 23.40873 6.404554 26.19082 3.61241 6.207342 9.874957 12.06035 29.36403 12.86274 20.19431 21.72075 7.392781 22.79695 6.319603 15.06185 1.757249 15.48721 5.640074 1.716691 18.00672 8.173139 4.123776 5.950492 6.027349 0.7699584 8.18986 27.15917 16.59777 5.798941 22.98487 18.19908 14.24854 27.98641 1.120872 26.76101 24.92831 25.24531 6.18651 7.548419 9.044662 9.033738 20.5923 28.60095 15.15516 4.659719 2.826656 28.1514 27.20115 25.15719 8.379484 4.746391 7.94584
 7.750671 11.13937 7.632028 16.22642 0.645459 12.00446 19.89399 22.46114 12.43517 5.729433 23.64726 20.96844 4.867689 17.72565 12.47087 3.168885 24.84608 3.371552 16.89813 17.61396 13.33135 14.66498 23.49312 22.77143 13.47169 24.45393 24.9686 9.246759 8.402757 12.96348 15.72374 2.952922 15.86827 20.47993 10.60077 14.71427 12.51403 22.09676 15.83851 18.86852 25.35499 14.98796 15.49526 17.76162 25.04381 14.49285 4.792505 15.93315 29.31229 26.94213 23.64557 20.84266 1.89139 5.954668 8.421242 1.696232 24.8752 23.30692 25.28219 6.842754 21.69819 17.97665 6.27231 17.06949 7.711067 17.11976 16.62596 8.374945 2.215359 15.80126 19.66158 1.200661 13.17474 12.86512 12.37054 15.02444 4.253285 22.96103 12.92639 16.40207 6.272276 10.65659 13.71535 17.36108 8.448795 0.8872257 9.356667 14.59131 0.826129 21.77309 15.5665 28.01198 3.936251 14.29958 22.34249 1.547799 17.38268 21.21284 21.75483 24.92731
 17.51543 23.93733 15.48302 5.186044 6.277855 27.30444 18.94103 4.836686 27.03286 17.07563 4.395598 15.85171 15.30706 29.10759 26.0735 9.56324 20.04334 19.84069 6.224921 25.65509 12.52812 13.45166 20.46205 27.0724 5.790457 6.061429 28.65657 29.08265 9.281873 8.048633 8.78495 16.96771 19.26684 22.6776 26.07664 26.58357 0.6451098 7.907791 26.3862 9.646459 13.31037 3.26226 3.849834 22.24777 27.35088 27.67957 5.663783 11.73595 27.70925 11.09007 29.05541 9.289585 5.398007 18.24064 9.356445 18.60967 1.216712 1.209369 23.32262 20.0258 22.5577 26.21453 20.26462 11.81777 16.13326 20.01321 9.144478 20.60694 2.361223 1.912949 2.690267 22.17656 12.05084 10.06699 4.325904 16.15466 13.49302 2.953133 7.90804 27.77411 7.044748 6.081263 6.45343 23.69758 5.573087 1.800418 18.88257 26.8154 4.718395 16.31325 10.11526 22.27247 4.154229 18.02896 18.27658 13.64223 12.72125 23.44606 27.68754 0.7178431
 15.04333 18.49189 16.71458 9.028431 4.599317 3.365599 19.42551 25.65392 17.23397 15.41176 9.064371 17.50884 5.71398 9.90606 28.29516 9.657013 18.25514 18.78774 9.202329 23.88655 25.40563 12.45401 26.61956 0.9667556 27.86828 2.49031 13.08532 20.30997 0.8334165 10.72421 4.990314 14.19261 0.8341563 4.829015 8.962903 27.34118 1.301282 22.25989 27.98016 0.8295342 10.8303 3.57506 19.37919 4.116565 5.621579 19.49118 1.204657 8.410574 6.227071 5.164188 15.13737 28.8431 24.30035 5.783318 10.17256 15.34021 28.45103 6.700417 17.16232 15.82831 28.62174 6.277506 14.37046 21.28318 20.98837 16.8791 23.18845 11.01942 7.274909 8.910217 26.47103 17.20314 20.8099 2.765352 9.954272 5.626609 7.833993 17.31611 11.76523 18.5073 12.37025 5.54925 18.1358 21.62856 17.43883 20.48522 18.88766 13.5772 5.934814 0.4827347 2.210779 10.7055 16.7909 22.62823 6.631693 16.02115 24.85856 27.07661 11.54728 16.61153
 24.73531 12.81024 2.559704 24.40383 3.987495 17.80869 6.327229 7.061231 8.103337 25.14402 25.06028 29.39913 3.270391 23.63717 26.99477 21.06164 22.15724 12.41333 10.79955 6.180363 12.98576 1.116893 15.89686 6.615514 17.80286 28.02503 20.64849 6.658171 19.02919 8.978677 29.00802 2.261024 1.635052 6.783694 26.88399 18.25401 24.65199 19.66 27.57529 4.478368 12.36921 10.68766 1.49045 1.515316 10.69878 28.06918 4.653371 28.91478 26.83277 25.49529 16.88833 24.79188 27.61377 10.44841 0.8135072 21.14349 29.01598 9.343983 26.79596 3.453309 12.12584 17.3026 21.75227 15.51114 17.8047 6.598665 5.271067 2.298595 24.25413 9.088235 15.24728 16.37263 2.924059 14.13671 6.007371 26.8729 2.856998 26.06439 4.255839 9.506319 14.50387 25.02652 9.450391 11.96847 1.733731 20.01752 4.909285 3.823287 16.12836 5.828174 1.969842 6.126702 5.383221 26.74046 6.032013 19.77221 24.41604 15.70469 17.91555 26.35691
 4.560452 11.65991 22.19012 11.43163 9.045509 7.848814 23.35643 12.50884 0.8604991 9.554622 4.627488 9.57526 21.36868 26.78454 10.03456 1.564265 17.43358 18.88543 22.6976 2.492696 11.97781 11.95522 3.547023 14.89832 10.40127 12.29956 18.73706 16.95051 13.04179 13.99282 14.54528 19.23053 12.50282 23.47299 23.39597 22.94933 25.49128 4.516994 9.373384 12.0417 11.88697 29.31379 18.54801 7.079861 3.727001 7.662747 1.97306 25.42908 22.06292 12.15864 15.54214 14.47936 3.884447 6.543888 2.24453 28.98662 14.09779 7.151934 13.16261 25.12249 16.1999 7.114677 29.19488 7.783755 25.42724 12.55785 10.26523 4.600838 1.506224 2.885875 3.612406 1.391398 28.09797 2.22925 13.66474 18.30997 6.622702 14.23685 0.6671936 9.136669 7.552726 28.44746 11.57868 3.065346 28.40825 6.727648 24.59211 28.21538 19.60401 1.379077 17.96135 25.95313 28.90661 16.68885 14.47834 14.18773 27.45531 12.72444 11.56135 27.13452
 21.06277 0.5071624 11.4014 22.23756 16.63803 19.6378 24.21119 26.19311 7.351404 28.07245 22.4252 5.470443 6.71456 27.04388 28.4914 5.09728 14.70117 7.583529 8.41019 21.81138 23.42 10.54038 11.78496 24.7516 18.3812 11.20182 28.37086 9.422828 8.914037 17.67809 15.52724 21.14844 6.548893 1.33586 24.9045 8.935575 4.645531 0.7244911 3.962314 6.129316 25.88338 0.4680145 15.15272 2.97699 27.17464 11.61778 0.7542564 9.185022 11.01743 17.18764 3.056385 6.558749 20.61427 14.29304 29.2752 8.921031 2.004907 3.810756 24.03193 12.27275 5.44755 27.39202 4.329883 24.10705 16.15769 27.9529 2.692348 19.32534 18.56389 3.559783 5.183126 9.940102 16.87416 3.902503 28.49926 20.71681 15.07164 4.937719 21.13058 20.1115 24.90112 12.45443 24.32081 4.682013 22.87426 5.233651 24.41179 5.85668 27.38847 18.7291 26.32061 1.449601 9.757319 11.5225 16.8179 29.23072 8.903165 26.73341 22.28132 21.7121
 17.53666 17.7322 9.600821 2.117296 13.36114 14.55928 2.507039 22.64205 28.19517 20.81015 17.96124 16.30032 16.13034 2.42707 20.58733 19.44928 1.607358 22.77084 15.79961 3.082994 5.136663 11.34733 10.76863 25.22687 7.593333 27.69557 10.67188 6.768372 14.10608 7.192617 3.285948 23.96107 8.796905 12.04256 26.66837 21.02868 24.33881 4.064245 2.3804 8.305437 22.9546 2.189991 6.435014 21.06046 17.51617 6.515975 7.497143 6.181134 15.20814 15.53198 20.17469 2.424263 2.542855 13.23743 2.588522 20.85497 9.469543 12.23211 3.922004 6.831879 10.97109 27.60023 16.9811 1.301072 12.46208 19.38713 16.30525 27.17338 13.31474 8.375336 7.086696 22.3701 27.02281 12.29471 7.441685 2.025023 1.490609 4.140812 23.41869 1.353412 23.37644 21.54166 11.4406 21.98921 24.4933 25.84273 9.123176 20.95464 7.592475 2.203903 12.27513 26.83841 19.34635 6.186976 13.45277 0.8972754 13.65448 2.721592 4.628021 18.8022
 21.27081 15.52732 29.39971 4.278324 27.29237 0.7055429 0.8418517 21.69774 10.63543 15.39206 18.27244 23.92609 18.88921 27.76963 11.54245 28.14739 18.61169 17.35317 5.991002 16.7484 7.909606 21.28796 24.04218 14.9793 24.72507 7.553065 11.82009 4.631208 27.57777 25.86552 15.77215 8.904188 20.82043 29.33871 7.588282 16.69622 4.642883 21.89362 11.22475 21.37328 28.32871 23.21469 8.03441 3.170599 7.646153 4.50703 28.79955 7.67233 26.48351 28.3199 13.20938 23.30391 3.454781 14.02771 24.38582 13.14942 7.209878 7.638945 2.495009 14.39302 7.040755 6.006279 3.984971 0.9568684 19.43209 26.25305 7.758677 28.00378 28.98258 29.3915 10.98897 2.181345 27.28778 23.97637 10.88177 12.63924 11.1532 4.523686 9.581158 21.77847 10.98181 16.78321 10.8719 22.3664 7.851655 24.35518 1.015929 25.60533 28.73894 2.234902 0.9131607 4.182798 3.717626 2.403797 22.35173 17.30748 8.652265 8.506804 5.750379 15.91169
 6.990907 22.99163 22.50957 26.7084 4.164711 21.18546 1.819549 8.436536 25.42318 26.55712 25.37137 12.99393 2.269632 10.78969 6.592715 13.42349 23.92606 25.66345 6.878953 29.22932 14.82406 11.51731 20.93518 15.06637 26.12033 18.66066 17.94743 2.676093 2.722366 25.19371 16.1239 16.50401 26.84606 19.93369 27.45344 25.41231 3.921655 16.94666 10.80807 2.019859 13.22231 29.09601 19.21979 28.0923 11.88094 27.00542 1.012593 26.1631 0.6635464 25.9221 8.864591 8.016267 24.58356 5.46581 23.82518 5.47567 0.9032458 24.90667 26.71976 18.97354 9.006012 28.1939 21.52489 4.866341 4.534289 1.84258 21.39518 21.1458 12.41507 2.847969 3.384485 26.13224 0.494309 27.15973 19.31033 8.714312 20.00428 11.79426 1.01671 6.838416 14.38884 12.48107 29.04394 19.6508 23.012 18.55758 5.747641 22.95764 23.57186 1.779205 7.181395 11.38689 13.71146 8.938621 9.622985 7.52948 23.5758 3.997441 21.24584 3.281264
 24.24285 23.4769 15.27305 7.573399 29.21851 20.40116 5.3629 23.94668 21.44014 29.15717 18.15462 15.10347 8.474875 16.9884 22.04621 1.676551 3.999501 1.759479 2.729422 12.859 7.719274 13.46679 21.0447 18.94963 11.16028 7.698328 27.08585 17.22857 4.249976 8.385835 9.819499 12.8077 8.118012 19.42854 4.663352 5.144089 26.96695 9.873633 14.16845 27.54575 21.0298 9.670644 11.3492 12.10201 28.91909 5.773289 0.9678619 27.43682 21.78011 20.53504 16.47901 16.75732 13.25224 0.6058686 10.60832 5.582708 24.1275 20.28018 25.42125 4.280209 5.366817 11.56683 17.49641 22.92858 10.05495 20.75012 11.59153 26.3343 18.29966 28.8794 14.31862 1.856737 8.403984 26.22268 10.12922 8.334021 0.9846356 19.56085 26.14362 19.87167 3.059994 2.080866 16.36057 19.26073 16.29315 12.11998 15.52055 5.90146 8.018894 15.53526 13.37592 29.43643 23.82528 15.53829 10.44887 0.9392927 18.86981 10.98787 15.40392 22.24617
 1.570858 12.08574 8.084759 24.32605 5.526945 11.3128 23.25339 6.822783 8.476461 3.459175 26.31109 26.52793 13.20216 29.3759 9.997334 15.12814 16.42661 8.1162 17.55272 6.670129 8.393008 11.47465 14.28516 27.19368 20.63614 14.79343 25.51116 15.50171 11.83216 11.06767 26.0294 23.94206 13.28354 18.79216 12.58183 3.603902 16.4335 0.7047443 15.08612 21.86014 14.95045 12.74998 22.51962 10.94728 25.96002 10.28543 13.09833 20.54772 8.180921 3.506112 17.53117 17.34818 14.04836 26.93484 24.82341 0.9940112 2.425096 4.176431 7.086748 1.21806 27.40403 11.07634 10.38435 11.05754 7.374583 25.06506 27.01431 24.28034 18.09772 9.085373 15.20644 26.29403 26.18449 6.623051 10.54564 0.5016276 15.95702 20.91406 8.875916 27.48892 7.068843 28.19581 18.07726 25.37839 16.05131 0.6443458 24.57418 4.439507 28.54517 25.01413 6.05931 26.18716 0.6386347 16.93114 19.83671 28.64715 1.988724 26.50286 6.160281 25.08848
 2.150152 15.60747 28.95808 25.3535 23.17387 1.388636 9.528334 15.92149 2.296092 24.29469 7.059509 25.06586 9.339339 11.94298 7.63675 16.52073 4.244542 29.46483 18.55271 9.932016 7.169496 9.402113 24.29172 20.21044 19.94929 9.916971 1.776384 19.13833 28.79797 16.10252 19.43224 3.17172 12.24767 6.795507 21.60551 28.44086 10.00792 23.62955 3.127469 23.98494 6.273499 6.875676 8.575455 9.60765 23.52601 21.48939 5.900001 5.508609 25.71922 3.720329 26.33587 2.980156 13.84777 20.14149 13.51267 11.31304 9.580055 25.04008 10.48709 8.999537 26.49398 26.15308 7.161154 7.210276 6.781198 18.00237 24.84365 27.51997 4.741724 0.5421341 8.938641 18.86155 20.76116 1.084531 18.64757 14.64419 12.31071 10.41074 24.93522 12.24725 9.8768 29.33629 23.20311 8.724379 10.66841 12.45322 0.8691695 16.77693 20.32045 3.943459 26.92111 0.5706169 26.37676 27.81426 5.579354 25.96502 3.831415 13.82161 1.938866 15.21297
 17.80582 24.63135 13.21192 27.34517 26.89972 22.7326 12.36324 21.87723 25.48343 22.40678 10.77313 24.60166 14.99919 6.903958 14.17339 20.21846 4.314108 29.09799 4.11205 29.23393 16.35842 10.60513 15.83035 22.61426 5.734183 26.87091 13.66913 19.48302 23.04718 1.332119 0.9318047 2.224185 15.35141 18.75394 10.52788 17.39651 6.382373 14.93518 4.255352 6.937454 15.1151 9.040382 28.69728 3.178357 10.09997 25.94786 3.920006 26.47219 27.32554 11.95319 7.942649 12.88741 14.1015 29.10995 26.07535 15.99077 29.35406 17.6641 6.516117 2.652385 9.182613 28.09975 26.33989 1.142686 5.010826 28.02312 5.104198 1.275427 7.800214 18.05983 16.39543 17.9263 9.93697 26.5189 5.409253 15.20749 4.195597 5.067259 26.82457 25.41146 4.508551 3.200092 9.534629 2.479255 22.42038 20.79143 20.805 17.65732 25.55855 6.610969 26.37921 8.367184 1.942306 22.57012 7.875343 8.407182 15.69722 8.160272 7.30446 19.06804
 2.361856 17.82749 13.29027 15.10723 20.31594 5.928903 21.43728 3.257974 28.10242 11.16229 19.65473 26.20351 14.50039 23.23069 6.586053 6.076302 9.451954 1.182024 23.21667 14.85316 16.30781 13.15471 20.35055 2.610025 6.917911 21.38417 24.9423 0.5053716 1.669623 20.21668 6.552022 8.84129 6.1463 9.368431 18.87303 4.591514 23.78582 7.022031 2.072828 10.29747 23.88967 26.49499 19.57383 21.98951 5.002283 24.90118 15.35668 2.875162 19.16202 28.42867 24.54762 11.67016 8.436782 5.786298 2.074549 8.184623 9.727921 2.120663 10.4117 28.42814 9.191356 4.183694 19.31461 26.34902 28.55288 23.0568 8.493163 5.42698 24.899 27.05703 25.12584 0.8102472 21.77764 5.250238 27.10437 11.97416 1.280315 4.222199 27.90356 16.54306 2.084074 18.93686 25.46976 4.326405 13.96861 2.514717 11.35537 14.8171 19.15817 19.84351 17.54048 8.726744 6.181279 1.76184 28.03376 21.86074 11.00336 11.83768 18.66241 5.712614
 28.19113 12.61981 29.38763 25.4631 24.51539 7.33669 2.929932 8.608972 16.95105 3.502392 27.22974 3.404301 22.71179 14.30467 5.973481 4.49641 27.46119 28.72579 24.16961 19.36819 21.81797 15.29191 27.70797 10.55077 20.10155 13.41583 3.271792 19.84556 13.5195 26.75315 17.14438 15.46844 1.130486 5.518396 11.58279 27.75091 15.94005 0.9399875 13.95235 9.734679 13.47778 17.03005 10.5043 9.649843 13.21293 28.34678 0.8720596 3.923847 5.786758 10.18813 17.30977 28.44739 19.66898 21.28696 5.185992 1.224311 1.978657 11.28174 27.0805 6.738029 8.921072 10.97466 26.58485 8.227118 7.588797 14.56549 5.188605 3.046387 18.85308 19.13131 5.271592 26.79031 12.27957 25.65468 29.06987 26.48728 17.16928 13.67594 6.428736 25.99813 19.51409 20.43915 16.89462 8.997162 28.49973 18.87534 7.388633 13.4466 0.5929288 2.564095 26.28414 16.54749 15.54262 19.60693 21.8922 16.70475 15.18965 22.60029 13.89137 17.72254
 9.253002 0.5368586 12.29418 22.02171 22.14648 20.73981 28.23595 5.241564 10.60952 18.75193 20.58938 24.46944 18.21213 11.8638 15.77249 2.155766 21.53828 21.18737 22.64095 14.19583 25.96388 25.22808 19.62626 22.96909 27.80649 21.64214 9.075789 0.7230287 9.518001 3.788554 27.03083 20.64263 24.09235 26.42838 17.4025 27.93921 29.37552 28.24724 2.786509 19.87424 21.01862 22.68202 4.404341 20.98155 10.12367 21.55211 8.039481 27.90218 8.071224 15.58603 8.557865 2.483179 5.97977 8.418632 24.21441 18.29705 8.912035 18.67422 21.07658 6.195024 15.52831 26.70666 19.71592 7.4248 20.95753 15.86655 21.13884 20.60763 27.29432 12.50108 27.13877 18.01503 7.96233 24.99352 9.293305 7.782116 25.28481 8.261242 12.59771 3.771062 28.87846 8.103123 28.88273 20.71014 4.209328 10.62633 28.24385 3.572626 22.37035 0.8935626 19.69331 21.43823 20.71943 20.06443 13.20428 21.43159 11.30195 7.264521 7.921381 24.49407
 13.90648 3.915629 27.47801 23.84868 7.118083 2.153056 13.98476 22.97864 2.808845 6.242745 13.11238 0.5715883 14.94863 15.16067 1.660195 13.58377 6.642279 20.26947 16.20297 27.07158 10.78612 23.44524 27.40292 8.917169 8.353224 29.15249 3.37036 11.72145 1.683147 10.07695 10.4925 27.11451 21.10246 22.99903 1.962921 2.274558 14.44884 4.739805 23.09057 4.477161 29.41642 2.618537 5.767367 14.66138 27.11604 14.85144 13.42209 12.59431 4.292284 5.414632 26.92756 18.45078 15.69606 15.70679 20.2767 6.659875 20.64609 10.76834 17.36828 9.339277 28.22799 11.46005 2.729263 28.59301 14.31358 13.75587 10.91332 9.828203 21.31107 9.628752 9.221184 10.09156 16.18298 28.30381 18.1319 24.60173 25.21405 10.64169 26.63652 15.20214 19.2951 29.06273 28.86364 1.441097 21.68341 14.63397 7.827929 22.14371 4.913751 1.593619 25.73543 2.653121 0.5380513 1.437519 6.408291 7.649915 1.49939 9.76729 20.83208 8.679039
 8.417066 25.46275 13.70869 1.016437 16.60798 20.52904 7.209411 25.01947 9.36497 8.441044 14.98359 28.85454 6.633557 4.79599 13.4699 21.16944 18.45644 14.9302 7.836935 7.159737 1.071598 23.33578 28.27686 25.15799 0.6784602 21.1435 1.196229 26.80517 23.61887 28.9413 14.56235 7.622981 13.12812 18.53558 21.59749 21.48758 24.74177 11.15907 13.73227 22.40961 24.84114 11.81903 20.42307 20.48575 13.90535 29.04609 27.58954 6.299773 15.15989 16.76344 5.233184 15.62136 11.31521 5.6419 11.07904 16.30326 25.58239 22.44537 25.76965 9.657995 21.88759 26.4201 21.60373 9.601683 4.791329 8.346016 7.111521 15.12952 9.815551 15.40691 1.574951 27.75777 28.64706 24.79398 18.90154 6.129118 22.03848 24.97264 20.39306 25.70861 11.58204 3.76413 12.85602 21.56467 3.183805 22.85114 17.54054 3.132385 14.36319 13.80477 21.76535 9.494469 3.881733 12.2322 5.416637 5.24191 8.574418 4.526763 28.4435 7.241683
 6.903827 29.20698 2.85173 20.67802 25.15724 3.429538 28.45856 12.87851 16.7961 25.02446 24.6454 15.9333 23.12675 19.7644 8.663998 9.074241 17.24834 10.3165 25.26796 17.70757 13.25584 8.454361 14.97767 25.67697 15.77684 29.25863 5.487957 20.03488 27.70634 5.424723 25.68716 6.715566 4.099341 15.93926 0.5812508 4.557158 8.204971 3.77782 0.5641626 20.15342 27.24271 11.07941 4.81361 13.34585 17.04181 17.34406 6.094123 9.809175 23.97924 27.74274 19.55872 11.36256 7.416808 7.083767 13.54648 0.9735522 21.73617 3.727478 17.40657 14.73886 13.8416 9.608455 15.42575 16.07014 27.88198 24.92258 17.02959 8.459222 21.25489 17.293 11.38914 29.33273 16.8368 9.308132 14.71391 19.14218 3.842744 27.74358 24.35448 19.01091 25.5272 2.840442 28.28329 11.97079 23.96544 27.36949 7.559149 14.42457 8.74063 19.25571 18.92574 8.146523 25.55865 18.63293 12.85861 23.01104 24.7212 12.91074 17.59754 0.8867487
 2.838423 12.99296 17.9437 3.396906 10.80724 12.98559 13.01038 27.30313 19.92455 27.82417 19.2841 9.131538 27.08445 25.85114 5.65924 27.37176 10.32616 8.694699 12.33064 26.77963 23.75314 14.35879 28.37163 2.294398 4.332566 14.34649 6.22705 3.908435 22.78616 25.24303 3.981213 9.175121 15.26668 1.06225 26.44237 28.64311 9.958165 20.3144 19.96321 11.41922 19.52967 1.98163 26.54882 1.259369 9.821238 0.8033088 9.284005 26.69734 20.77266 3.189921 6.210481 3.143835 26.57035 26.35661 26.5903 7.634994 11.75827 18.86364 14.45265 27.75825 4.587255 19.35949 14.88295 5.763564 10.36868 18.22754 9.556322 17.54685 26.88176 7.6199 21.55107 10.78557 20.14728 25.28489 15.58322 24.18853 13.46216 5.304061 8.659538 28.99645 16.50974 8.669484 19.22758 2.892267 8.980433 24.74203 18.81633 5.306678 27.78979 22.54281 12.98619 28.61725 27.08121 9.23243 22.65375 2.397187 20.68064 8.820457 8.398007 19.01463
 26.43926 15.58537 17.36457 3.074365 6.369375 24.67202 14.62133 18.70502 14.88062 12.93887 3.508563 14.08581 6.095723 21.41831 9.70424 3.549384 4.367015 23.61038 10.50381 22.00297 8.273013 23.91952 20.00883 22.43073 20.43637 27.54361 13.02217 4.308688 19.96868 10.76375 20.32381 14.78238 3.468067 14.6703 7.224626 22.21622 27.94491 23.22861 13.77753 6.6179 8.376089 18.31642 11.07511 23.77919 21.42971 8.893862 7.352126 8.669104 15.14761 10.45522 9.436843 8.431727 14.98113 11.81559 20.95984 6.677666 11.56059 22.01884 28.93905 18.4987 27.09359 6.847819 24.87249 23.55278 17.01623 27.71819 25.58551 24.05494 24.99506 1.594107 11.21126 6.115156 28.86998 4.527766 22.91101 14.57193 0.6611921 3.178243 9.992712 3.122723 10.88892 4.52621 26.50683 0.7852663 26.24777 17.44819 15.90594 18.04314 18.77802 11.10778 16.43936 12.98434 11.65915 17.61257 16.55616 9.30824 16.87519 10.87456 11.72636 1.532958
 27.29207 23.81171 19.43622 16.53113 3.491495 26.54279 13.90258 28.25709 15.60153 8.776258 13.82955 2.460248 3.823872 2.171392 10.67355 10.96246 18.22709 7.545141 3.693872 8.115264 4.961559 15.19358 14.53203 8.689538 4.478986 7.650679 21.3052 9.240875 28.44339 6.230763 11.77962 11.82309 15.66629 28.49382 5.452673 4.713912 15.43967 9.731707 12.30066 11.04053 26.84737 15.75289 16.15634 1.33195 26.80503 22.22759 20.75514 1.509139 5.211494 19.87335 3.4593 3.648896 9.154002 19.0958 14.14755 16.37002 20.92321 24.66468 23.20994 23.72561 5.500329 26.90032 7.247204 27.19251 14.3296 19.1205 6.506565 24.0188 11.92868 12.09581 27.94428 25.06168 2.867712 22.97791 27.57154 18.18584 23.65898 9.363387 14.75964 7.599009 22.42698 18.8527 28.34416 28.68546 2.123896 20.91386 27.98664 1.17008 20.81334 23.15102 4.114245 5.764747 17.75031 21.35602 4.041916 29.42895 2.209628 25.21275 11.97507 9.360881
 16.32192 16.89885 15.58745 21.5643 12.29113 10.73976 1.367212 5.584733 27.93063 3.009915 8.647321 22.8516 26.96941 0.8601569 23.20387 26.97917 16.1054 8.007642 14.69427 25.51263 22.47373 10.49287 10.80162 24.99068 6.348006 16.65576 10.95685 12.202 28.1367 26.22857 8.447747 24.64606 12.81663 22.8958 4.650744 27.78773 24.57721 12.82656 19.1415 20.00153 27.60499 16.94575 1.637838 26.62865 1.045736 28.42349 15.85878 28.17388 15.58101 21.03769 21.92569 20.53229 14.89763 0.583294 29.22329 27.96579 12.91875 2.075556 1.363606 2.287512 25.24612 18.07659 8.639007 2.007206 20.50055 0.9846183 25.15039 9.728799 25.92973 18.00847 17.3561 8.61992 5.096768 15.85845 28.55189 8.460511 23.13384 9.072153 12.08024 21.75255 9.57805 7.465621 4.155415 4.324317 21.01888 0.9591846 22.07748 26.52874 25.60894 13.06641 2.824844 24.70972 23.38766 27.02106 19.87708 2.091793 25.64339 5.880009 25.52438 28.92513
 17.82079 15.30383 20.22046 1.67084 1.731408 25.73474 28.11985 26.49741 15.18876 23.29283 3.374933 29.00483 28.67363 7.115593 2.518261 19.26961 4.293259 24.99347 10.72101 26.48411 6.905078 24.6195 21.18335 8.074796 17.64632 22.90385 7.890592 15.79699 4.121881 25.90529 13.7887 5.296041 1.655283 26.64515 29.22785 27.03804 23.35402 5.49105 12.79703 6.710885 17.32055 20.73693 10.6727 26.05763 18.61442 25.61075 5.074014 19.34068 1.608896 3.787942 17.15706 9.962905 25.65447 17.96778 16.86231 20.97186 13.00854 22.51704 17.4626 24.0043 17.4254 18.60721 8.85741 26.03918 23.71604 9.369823 23.78636 5.5474 13.48422 15.83714 18.80116 14.01928 27.59601 20.48338 17.42593 3.723866 15.55824 21.72341 18.20286 12.89016 22.20251 7.057307 6.073035 11.48725 19.86964 4.801631 7.917087 25.80784 16.62835 11.49179 28.67441 12.0556 8.248343 22.56796 2.611418 27.6553 25.05711 9.895914 27.6071 1.010093
 25.22795 6.081874 18.04636 1.424434 21.43572 17.89001 28.38527 9.995588 5.082819 22.19464 12.2727 19.94496 24.61884 17.03055 13.6871 18.84436 19.12481 23.37479 8.2165 6.209928 10.2965 9.656 12.67363 11.55021 19.81137 5.977173 14.36643 3.250728 24.45484 26.8624 6.566649 8.971037 11.89428 27.08078 15.18624 29.21718 20.93758 23.90149 7.143112 5.243943 20.99774 10.49899 16.43844 21.12413 14.49866 16.89672 26.48321 26.04508 22.82941 2.706758 26.36166 12.18295 18.3925 5.951208 7.702099 26.95325 26.68589 19.01579 24.82058 14.8544 3.496104 21.58302 12.88122 9.79728 6.18922 19.88881 5.671503 25.23839 1.56478 14.15913 18.17381 9.297647 24.72846 12.85667 27.97415 12.74817 8.22356 20.73151 3.100207 12.62191 13.58998 13.91472 7.431321 0.5042827 7.199749 15.12226 10.72595 20.78158 8.43117 10.84855 25.41623 15.87837 17.48193 7.032762 4.764869 18.47558 25.4698 16.24971 15.28405 26.42146
 16.49795 23.64094 13.30912 0.7611567 1.439914 19.39553 8.012035 6.983357 17.07518 5.557436 27.53376 19.6008 4.547371 22.21253 15.65725 7.380726 12.441 25.1953 22.21733 14.02929 26.18816 9.672297 7.548588 9.164622 7.597713 24.37127 19.84658 20.44259 18.66884 8.831544 18.16575 27.95752 24.63387 13.58958 21.66325 28.94106 26.01759 8.535858 26.25026 23.60829 9.88949 4.655715 23.83403 23.87692 21.53865 18.64692 8.528791 0.7800773 10.10251 5.360729 15.58985 25.28116 3.552219 19.11651 28.69204 27.72736 21.58064 21.04047 15.5302 15.13945 18.90527 9.996006 10.63925 11.71829 19.2479 8.45955 22.67801 17.07959 20.37115 6.159883 22.18983 19.7363 3.017216 11.53648 2.253429 24.73744 10.40376 17.53459 6.351377 8.350296 24.30148 10.59101 12.85085 10.43123 24.52868 19.52847 9.799202 15.02632 10.83748 5.967528 4.162153 10.46479 8.051592 0.9645638 7.186712 6.147555 4.791744 4.946856 0.8500381 29.06569
 25.95782 7.931113 0.7600574 4.875201 22.5909 1.694286 3.392803 18.90757 13.17814 25.40228 9.505119 17.96886 7.564587 26.05804 13.29606 29.00282 20.0527 28.50226 14.82488 12.91607 20.8347 16.1025 14.20527 26.19385 19.75956 26.909 7.832752 20.64186 9.759294 15.61096 2.2138 20.21722 16.52899 7.944931 6.17321 15.43015 20.18561 22.07307 14.04614 16.23289 21.42211 4.90534 7.093143 0.8629813 25.21077 22.82554 23.28034 1.134659 25.71756 23.08938 21.67196 22.81314 4.35679 7.298244 4.410042 3.05186 14.41799 22.71698 16.4587 19.37545 25.87417 25.36444 1.108298 7.44976 1.103908 9.01564 0.5353341 1.581423 11.75349 1.859634 13.9048 11.95761 22.67717 24.33826 15.37348 2.813588 22.63319 19.41891 3.213824 26.73228 20.35855 28.68538 17.8683 4.333866 15.44728 21.30933 12.73775 9.267715 5.049873 21.01659 19.06248 21.43094 11.58569 13.22645 6.528376 20.79931 23.15488 20.10583 0.6727353 17.67466
 20.76864 18.62486 12.75825 9.879755 10.4551 22.7702 23.50498 0.6452377 9.699183 14.38476 8.511585 0.9765633 9.246306 20.4953 7.930314 7.701553 8.446551 6.850492 2.55343 29.26991 5.73056 14.78038 16.3145 11.75665 2.01067 2.41813 14.55353 20.4358 20.61805 2.469036 3.795455 23.77357 11.19158 15.3548 1.159373 22.37822 12.51498 8.082829 28.29376 7.429661 28.64783 13.99217 29.37249 26.0408 25.47485 5.219899 3.512234 12.77816 10.34398 0.8509645 19.52058 25.62096 21.19103 1.745246 10.16571 12.79432 23.32384 13.29834 9.291455 8.208961 18.44134 25.88617 5.23894 29.18542 25.22522 14.34893 19.50393 14.61226 24.98201 8.839067 15.42547 21.68688 17.78221 1.803055 28.76067 9.15764 3.987685 10.21828 6.087655 1.472687 22.94181 6.06434 28.07328 7.886997 6.311783 9.003201 22.39721 11.8877 3.613727 27.36109 4.189394 24.84765 28.56173 26.22884 27.16592 14.03354 1.352575 12.11299 16.68601 3.271301
 11.10119 21.54569 13.38559 27.32011 22.23485 16.73707 9.139739 21.23713 15.54606 15.67047 4.845173 7.774829 29.1366 7.645375 20.33645 5.803279 7.578917 20.2874 17.52324 13.27989 16.12643 10.75634 23.26851 27.525 16.03782 25.3983 15.48028 28.05417 13.7967 21.0972 16.6259 3.911906 19.57981 11.9444 28.93385 12.25815 23.02364 27.82707 5.454896 21.37198 25.07468 18.0365 19.33193 19.59233 26.64492 1.958475 29.013 2.47166 18.89992 18.55865 16.8986 4.127116 9.833403 20.10139 17.68991 17.32383 14.6148 2.609814 2.565512 6.402421 7.055109 2.671644 27.03756 7.093814 28.00974 18.6392 4.102488 23.70977 3.90941 24.54173 24.4497 23.69147 7.63378 7.598584 14.36501 14.24664 23.63055 3.072388 20.35164 10.50971 23.60797 16.95818 17.48961 10.15323 1.954959 10.42454 1.198092 4.909084 9.294229 21.7062 15.71997 25.43599 21.8463 25.94007 24.33493 29.08178 17.92705 10.09712 14.8279 24.08492
 22.74061 10.64189 15.00114 14.07104 15.20745 8.183963 10.79435 2.144444 17.25285 23.3585 2.090386 4.488956 10.60343 21.98884 5.336274 19.56454 6.581819 2.399417 19.07648 6.359906 24.96588 23.68412 12.18008 6.384959 20.76785 17.07398 26.77634 6.525624 27.77553 12.9044 29.42145 10.69147 27.76982 3.439995 0.8497235 6.486607 12.41685 4.258543 16.35412 28.92984 25.9371 9.58194 10.81703 25.40282 2.464908 18.36779 2.217866 12.12059 14.21887 26.54595 5.144182 20.73891 18.75592 0.8772728 19.51967 13.59879 1.733993 29.04006 19.52864 27.87655 17.93909 6.332916 16.77516 14.34563 16.68554 9.646414 6.159572 5.236454 8.43879 17.3071 7.767528 22.5647 6.846886 3.710241 11.18473 22.4198 25.35376 17.61252 2.436311 13.22639 15.19601 13.63728 5.699422 23.47944 21.94115 11.44423 25.15147 27.61761 8.417978 21.04301 2.14694 10.13807 14.93306 12.39394 24.45444 0.9860184 22.49558 25.95555 17.18404 27.79793
 12.99364 1.079401 18.15549 4.189668 26.8334 4.795512 2.762897 7.545069 25.70716 29.2344 2.882629 6.032324 21.41774 26.90947 20.23786 18.5389 5.455176 13.26239 12.59923 27.01485 25.71195 21.68087 18.75873 12.47431 10.34778 4.889513 18.86868 17.45761 15.46806 13.98797 6.293419 0.8246148 18.31033 21.08669 25.2416 10.3601 13.2118 27.67185 8.322788 15.21881 6.101379 2.248105 8.444242 19.1241 11.7657 4.003176 2.676384 19.26236 19.27396 14.14002 0.6167722 16.4105 8.766423 9.44627 21.35753 9.883686 9.71541 19.28853 1.437975 5.709717 2.016191 27.42101 9.95187 8.424771 15.83667 15.876 18.25586 21.86026 16.2837 10.27433 20.55962 16.12453 27.9434 3.274758 17.8577 11.32175 17.23161 2.033528 3.008401 17.72423 15.09917 27.01121 25.77756 7.216391 5.771941 12.34692 5.439793 10.24817 13.5891 26.91458 14.52812 12.3847 20.65602 23.61816 15.17112 2.205164 25.19374 7.182395 13.15671 20.71482
 0.5036466 12.84815 8.999755 26.44602 27.46071 4.147969 4.325658 18.07189 12.15009 15.0497 0.7710958 17.03486 6.552755 10.77532 28.4381 18.34852 11.26042 11.73067 22.77975 3.080546 20.74723 14.45325 7.913492 28.59289 15.18049 23.58311 12.19564 7.65183 3.842575 10.38531 2.075683 26.04714 20.0041 26.78028 10.7396 2.02594 26.82496 9.356867 7.325202 5.617292 25.78582 28.14429 3.442889 26.30886 3.872928 15.97487 25.49444 25.79223 8.353072 22.64286 12.47005 4.458642 16.91277 27.23789 13.72561 6.678042 4.470334 2.968288 16.70038 18.17004 5.675295 14.71826 19.98783 23.17513 12.37788 29.15751 25.7687 12.3668 17.78655 7.370905 4.686134 0.4914431 23.12092 1.903736 18.51318 29.2067 5.028723 10.16358 18.21472 19.5461 28.83529 14.9222 7.673046 11.74915 22.56867 16.03262 24.63378 17.99414 15.25915 24.73782 28.10469 6.988186 4.494312 17.20415 25.75347 27.78373 11.74987 2.910918 25.73619 3.49396
 6.206785 14.74505 13.95748 25.05812 4.409064 2.770312 20.96762 16.15602 11.5222 14.2359 27.42498 11.85161 25.23277 25.58332 21.72053 29.24114 28.52207 0.5156702 3.160605 13.25941 24.16492 4.628798 2.15045 3.077725 21.9821 18.46901 19.27632 25.27451 14.14344 1.164268 20.39959 29.32311 14.47378 9.739779 14.42305 6.853216 11.62474 15.19892 2.386308 6.9747 29.40485 0.7222474 16.3269 13.22439 22.23131 0.9891021 1.00804 9.133644 27.03966 16.8474 26.60214 24.36056 20.25407 18.65259 12.43983 5.046374 5.624414 7.084303 16.75723 8.327414 18.81694 3.517105 7.44276 10.13583 8.523181 11.0802 7.103829 10.01345 28.11383 20.66809 8.15967 29.14176 23.36371 0.9178381 13.40026 19.70529 16.49565 1.294576 20.09928 22.98758 27.95785 26.37 19.92606 20.87046 17.53787 13.18215 27.42509 16.90226 5.248558 17.23389 22.2684 25.89934 4.64718 16.03915 13.98454 7.596344 23.59759 13.52653 10.38779 24.14493
 21.26945 16.77315 15.38548 26.63799 17.63515 19.73344 4.01885 25.99198 22.40174 3.374159 1.703862 3.349787 16.10936 16.62162 27.46321 15.92639 26.04977 27.08599 27.6805 6.582206 26.89672 5.066757 7.912776 11.21695 27.61952 5.458333 19.22469 18.61347 20.42928 10.85186 3.985535 1.868767 19.7384 21.80797 29.41066 18.97757 19.85189 26.03415 5.047111 12.61214 17.36732 2.959296 4.360181 21.28697 2.350406 14.58121 4.925858 3.08772 14.36512 15.08939 12.47755 28.20826 17.85135 27.07592 13.8635 9.968996 3.155776 3.93064 21.70765 26.40156 28.93108 21.79053 1.576216 21.44321 1.331822 11.61282 8.092229 20.31796 7.896722 6.109164 17.4128 2.050554 1.093551 16.95062 20.62752 24.35094 23.18491 21.56447 12.78603 10.3604 9.492771 2.95902 15.7843 3.996196 21.69174 28.59758 16.33638 5.707255 7.101848 15.26703 19.15591 6.11417 4.44639 9.887067 28.18367 28.93285 7.64 23.90143 13.69458 13.64163
 17.86091 8.66647 17.11702 2.881976 17.65981 3.008453 20.03357 15.76309 21.79075 7.318115 14.27216 11.98143 5.603502 3.778252 22.20843 11.92578 25.28755 0.9172504 23.49998 5.364429 11.96033 3.419554 8.865846 11.98868 4.952837 3.650123 6.491433 7.083671 19.49653 11.15455 17.20211 14.73502 19.66084 25.3732 13.64879 21.88431 11.33597 1.990373 7.968788 4.130836 13.72695 12.69635 5.684653 11.31713 6.89226 10.50805 27.49315 27.64349 16.82497 18.00183 3.085711 13.32007 7.556197 11.69505 14.35076 6.817397 24.6464 28.54374 17.51546 9.337998 4.134185 12.94046 6.960195 15.8514 20.10117 27.72614 6.411831 27.17106 14.82313 28.52954 2.280522 2.702436 19.91326 17.82476 16.28145 10.6246 9.747664 9.503028 26.63249 21.22019 17.14856 26.86336 2.450699 0.8782374 13.27607 20.48243 24.85422 6.26495 11.79325 15.33648 15.75318 8.226882 19.79896 17.95736 18.38474 20.13829 1.6471 15.90188 7.109796 11.2936
 24.21358 23.5403 21.84608 17.32376 3.604227 11.94138 25.37642 20.26304 9.210546 25.62262 19.04776 13.60531 21.08215 22.74674 13.1061 9.493335 15.46553 23.23466 1.666401 12.67022 25.62598 27.15765 7.008265 1.038103 13.59205 8.633244 4.4231 8.800424 26.60231 19.03994 23.31431 19.92021 21.04753 1.767482 3.279297 15.75668 21.9877 12.80037 7.02088 15.49714 24.3539 0.514322 6.167395 28.48585 10.24242 12.7803 23.84161 5.357068 22.0613 9.527715 8.029601 27.06517 17.74849 11.35866 5.109919 23.85196 5.074201 14.39769 11.21937 21.95968 17.24998 17.42553 0.7424713 9.601621 20.45549 5.368954 1.82406 10.348 9.460053 9.583561 11.56956 23.26391 13.58305 16.85976 25.79056 9.418499 4.004704 10.96495 15.37725 5.422666 20.20287 26.65079 17.01323 18.90279 20.32109 2.803521 0.4935969 2.36588 1.423822 2.181186 21.90388 0.626573 11.92881 17.20944 25.09011 7.407138 21.25877 8.366292 4.629058 7.008701
 23.33356 23.73579 27.10889 6.026323 9.365381 5.924636 18.97513 27.59522 11.13717 21.07475 3.961999 18.56765 2.752495 19.3548 8.544283 6.892035 2.089626 3.088954 17.80067 8.460024 24.81412 5.215778 4.040723 17.40906 6.472959 22.37806 24.9759 10.78948 9.869771 16.90785 16.59053 11.79433 15.26213 22.63045 21.92234 1.248635 3.523753 2.981183 19.22185 21.9214 18.44719 3.279933 25.09365 5.852421 28.95044 15.81904 8.678611 15.7401 7.903166 9.843912 26.53024 24.01209 14.92357 16.56364 13.49111 18.98314 4.035711 22.35553 18.99153 7.419235 20.3453 11.89391 18.23928 23.95961 24.19774 10.90952 23.48817 28.01223 9.140129 14.05673 5.81989 24.10301 29.36119 16.32402 26.52512 16.79485 22.01798 22.69868 13.48016 18.35279 14.62806 0.6708512 9.376486 28.71967 27.95694 9.80501 6.034848 8.049369 3.890832 5.751599 25.41537 25.27794 22.27399 4.279642 18.00108 13.82487 25.71009 14.47835 3.717346 15.26226
 3.19909 15.60423 27.01996 4.994809 23.07265 4.445415 10.94883 17.98131 7.17538 21.82495 5.451453 27.59267 9.055428 10.1799 15.68546 23.39274 4.413403 7.788851 11.647 28.10644 7.712989 11.01271 27.46279 19.18795 18.36156 23.15335 15.65229 23.64477 8.50938 1.021308 28.27853 21.16274 1.74405 2.207588 28.54256 20.64935 20.37677 17.52093 13.39208 3.549733 17.74746 15.84121 0.6188361 4.226243 6.197399 17.29783 17.05545 3.845492 21.327 0.9970741 13.36465 26.75311 9.655869 26.91337 16.3553 2.043239 22.82276 15.69285 15.9546 9.615383 3.869097 27.46733 13.5473 21.88329 12.26254 11.22795 27.59015 0.6101105 17.52415 15.1624 6.858152 12.54016 7.798039 22.50031 11.51656 19.8747 13.83939 5.149827 14.72606 12.972 22.90166 25.0576 21.53156 14.29296 20.81643 21.75957 25.73755 22.61206 18.57934 0.9362055 25.12511 19.12123 15.14764 12.58672 6.212908 8.389496 4.309891 20.72312 19.77736 19.64945
 28.14547 7.854691 20.29003 17.86135 26.12413 1.89409 7.450977 9.735478 10.14388 10.02691 23.27417 24.64553 5.490452 16.16631 10.03036 28.34976 1.735234 17.96774 11.09636 21.70582 27.48508 23.42477 5.981595 28.23182 2.440778 0.9355936 18.72869 26.2548 4.499269 10.93199 10.6953 24.96747 12.81742 25.59743 11.68303 8.558339 0.9519283 7.626659 6.781748 4.650782 22.77801 3.255301 14.48312 23.18418 1.451122 3.823592 23.89536 19.73075 8.289358 19.38692 25.333 1.573233 6.449841 26.58853 24.80497 8.579766 12.77524 8.359129 5.645419 2.996394 21.3584 7.930815 12.11961 21.51737 27.51595 1.995362 3.245079 26.2834 15.52315 24.95659 0.7183375 1.504337 20.12828 3.865626 11.66238 9.606837 10.70828 7.360579 29.09093 27.38413 9.584421 8.760083 27.26562 17.18345 1.299478 10.5357 4.840299 8.290009 18.37371 29.34709 27.76998 21.246 26.50899 24.50915 19.88968 29.42439 18.71271 27.4961 24.18951 20.15813
 7.863327 20.59664 10.02881 11.62978 28.72211 4.093724 21.36163 16.90047 19.41924 25.86512 25.32804 19.20331 6.455175 23.43801 27.96474 17.84353 3.56679 2.568413 16.48746 26.31931 25.8939 21.22329 2.635466 16.38306 7.662052 18.04176 11.33803 1.734249 23.62746 3.1764 5.685749 12.3879 6.106074 18.74086 20.12563 10.66049 21.76794 8.384518 17.68075 26.73194 8.247852 0.5179173 17.12419 3.59015 6.890341 2.455073 5.965769 17.22518 26.04469 10.38826 28.95631 2.596854 3.526712 18.53795 27.94803 10.57812 15.98849 17.05956 15.19583 18.9488 8.438109 1.940101 7.799253 12.43755 29.18453 12.79932 17.06774 8.346992 5.071293 22.31636 1.213359 16.22408 11.80639 23.19064 8.789265 9.186488 9.708126 22.4101 21.08214 22.02921 15.92994 12.37474 15.27115 21.61889 4.740396 17.68556 18.96333 7.904628 28.71199 7.165226 14.29345 13.58039 26.17113 1.396058 21.41197 26.37011 12.52642 8.789427 26.5603 22.86284
 15.10467 13.31793 1.149652 15.38387 27.53875 26.12746 17.57119 12.49146 25.0049 11.83022 12.33886 22.76087 20.05921 4.069904 8.931945 10.77041 26.84021 1.857449 23.72684 25.9176 2.350628 17.74755 9.6396 19.27305 28.1812 26.24404 10.9327 2.532604 18.06895 18.15394 11.85198 21.11449 10.83084 27.3929 28.58992 28.43162 12.14518 10.21105 1.050303 28.74214 0.574679 20.19042 11.19923 0.9121512 13.42042 25.29866 19.78297 18.79034 28.54614 11.62676 24.61858 20.33203 23.06427 6.354862 12.32378 25.00476 7.39665 7.415709 2.506974 17.72922 16.39043 26.18712 3.695466 16.02045 12.76614 23.5207 23.72436 10.37479 29.02185 13.37287 12.52073 27.62094 16.94821 11.29101 22.7324 12.63523 20.29598 12.82995 7.810402 23.4528 29.15649 8.5848 10.37195 25.40989 11.90591 1.862403 25.98775 29.26553 15.23901 23.70695 25.94033 29.25213 4.596848 4.205311 15.86851 5.730159 21.27613 8.537116 19.41427 0.5268746
 26.90646 4.029239 18.30811 19.71193 25.32638 20.19674 28.75432 13.34455 9.277437 20.75712 23.03263 5.609645 17.20049 9.873806 22.07055 2.178296 22.28262 1.653112 14.50103 25.01448 13.91601 16.86886 10.3854 26.42278 13.08441 21.30577 26.55162 26.56094 5.25589 6.576169 17.81164 5.412699 2.118963 14.36187 7.496203 16.30292 22.3798 7.130172 17.92648 5.236112 26.0192 25.7 27.44333 10.35531 19.16471 16.42587 15.47154 22.6589 21.06636 27.81264 24.02391 14.92612 22.66679 11.91978 15.36855 28.47819 24.84942 13.62731 0.5536185 18.77571 12.84892 21.16307 16.36439 4.659473 19.62023 6.687048 7.332386 6.837029 6.546691 3.972584 20.67867 4.409067 8.775512 26.34295 5.799151 10.66445 11.70302 7.39154 4.229797 25.81408 19.04993 1.52772 7.468674 3.830229 9.347283 3.40651 15.34401 24.58771 5.481115 16.82748 10.45864 19.46642 4.103863 9.963513 11.476 17.13331 11.62142 5.733761 7.910253 8.811324
 25.69188 13.53776 15.79462 3.264618 11.84872 29.15931 25.90743 2.004571 0.9544969 1.691433 4.776903 22.31176 25.4592 6.751623 2.231615 2.750593 19.02419 6.264169 13.20984 4.985744 22.73011 8.23867 26.84407 20.86256 17.19442 20.2755 17.1917 23.13695 4.637341 29.42967 29.11511 22.54516 24.11732 12.65955 10.71728 8.871539 10.06375 12.52052 9.469063 23.88338 8.652614 28.61846 21.41537 0.7096015 29.02684 21.29176 25.2347 18.68369 3.254728 28.88774 20.88568 23.16318 26.43934 11.63263 10.89737 9.582942 12.89969 8.826742 5.432339 9.44523 19.52575 28.38969 26.47173 16.11717 19.91158 9.577096 9.256487 16.04328 27.57323 18.56064 24.22779 18.01466 8.041649 22.14875 10.94731 1.503203 8.41029 24.47997 26.47796 23.96387 16.1058 12.31623 21.80099 2.070176 6.162801 7.830411 5.255655 15.98421 22.65433 27.09093 28.41862 4.002316 6.413137 12.50383 29.01191 15.6189 19.46583 27.12768 3.297744 4.042514
 23.16646 1.345146 21.11019 6.99517 28.49628 9.025496 20.57817 10.57664 17.55584 16.43073 26.01296 19.37615 3.625031 6.483531 27.36434 1.47882 7.134071 19.67985 16.07158 12.95569 7.92861 22.81526 25.44433 10.25373 12.58818 12.11535 10.80362 1.196412 15.53153 13.00395 3.349113 5.871169 3.212907 4.817741 5.929597 10.52273 7.00562 27.47198 15.01638 26.43292 6.827118 29.01148 7.109744 16.41582 17.41735 27.95871 9.258458 6.196241 18.84863 20.65932 7.408276 28.21261 15.29327 7.265979 0.917648 4.455323 16.72439 2.798125 19.94481 10.83649 17.71669 14.75878 15.60026 25.50696 1.960065 11.54232 13.14402 6.291504 25.81554 17.28867 25.12969 23.27295 2.714076 26.14292 20.55474 8.372214 15.43873 25.69701 28.52838 25.56092 5.895787 7.219005 10.5256 25.32294 26.35863 6.343305 11.19192 21.13589 26.17583 8.315823 7.383865 27.55091 17.09335 4.881303 14.16422 16.8605 7.919991 15.9957 19.04428 9.695435
 10.27835 10.89586 25.99236 12.42698 7.353253 27.23606 10.91137 5.699353 13.21476 17.66611 16.08934 23.01453 27.31304 11.2027 5.128867 20.97205 3.499768 8.96058 10.88933 13.97804 20.71375 10.9087 18.95794 25.90037 12.50965 10.90722 17.94448 21.3781 4.33419 5.672225 9.043476 11.533 21.45741 19.47345 2.113784 29.33714 6.46842 20.87761 23.75662 9.758689 11.27054 24.71678 19.41464 20.62387 10.39001 14.57046 10.42486 14.90055 9.674617 18.89484 25.73334 29.08638 5.68465 25.58216 7.564075 18.25236 0.4676999 14.64848 4.47929 24.16918 13.80571 19.91132 6.199736 0.77978 25.62276 14.31565 29.45835 3.395897 26.52086 12.07717 18.24595 2.800676 28.69182 13.14899 27.90444 15.07154 26.37506 15.08977 8.502414 19.76978 21.48183 10.92495 27.4063 26.10409 5.383684 3.377761 8.291751 21.70631 14.03792 4.460187 29.4277 5.67265 12.77318 18.9707 7.706196 11.68956 9.476827 23.69757 16.13051 8.665042
 14.86668 27.09464 22.84552 12.52906 9.266499 6.518392 27.60087 12.06053 25.64594 5.438586 11.61493 13.40485 28.7261 27.39041 9.813704 14.67029 16.8195 14.60107 4.932143 19.43687 18.82884 26.2271 5.723137 1.571425 14.02583 20.42902 9.240315 20.01123 14.62903 11.33959 15.00459 20.11804 22.70779 11.63773 28.02273 25.38765 19.77628 16.66812 8.036024 17.24188 6.548575 10.99549 13.05443 11.32111 10.15541 26.52133 15.79235 17.78188 16.48915 20.89056 17.50184 6.225719 8.657439 27.13553 26.62142 9.803005 11.98184 14.57572 27.51732 11.38183 20.40695 1.455706 29.10257 22.36329 27.67849 22.18101 7.882344 23.73056 17.18501 1.89408 18.81858 2.286426 21.03746 26.59239 20.90764 7.120143 15.7684 15.78022 3.080536 4.420921 24.39754 26.19364 14.70291 12.10914 15.59503 1.361778 10.87225 17.15116 21.57228 18.59175 26.28557 11.57391 18.37032 13.65702 7.900445 21.58257 15.52949 21.45621 6.360345 7.017022
 18.60462 15.00432 20.11279 26.33622 16.51056 28.72329 22.71957 21.63277 2.27517 26.32345 23.49786 20.76844 22.64411 7.723391 12.99188 19.04942 20.01015 18.1085 20.49365 11.56645 10.36808 20.932 9.713139 12.11079 18.85696 2.482733 3.29967 9.394618 15.24943 17.27267 24.21757 17.23943 9.227783 19.5189 22.79286 20.21803 24.7142 19.32446 10.35527 23.61995 15.54674 24.30322 19.74188 2.676819 12.74072 21.01176 19.53883 28.84542 1.801755 13.80895 26.53885 3.50132 21.93064 12.51226 13.75572 13.45528 20.36925 23.50833 21.02271 9.442495 28.94041 6.64714 14.55335 28.39144 22.6864 14.55296 17.83587 11.01565 13.93346 18.23595 17.2009 23.20718 14.79618 25.73724 7.530618 19.36845 24.9555 14.43349 27.36796 14.32637 3.412608 28.05084 27.90046 3.484294 12.26637 11.99591 1.780595 27.94188 27.89892 10.50476 18.64394 6.680182 18.86709 24.88169 21.52196 24.73882 26.66413 3.945695 21.70336 16.44367
 1.121712 7.434657 16.05663 24.20493 7.11662 20.73796 22.83635 1.50732 28.69336 8.970418 19.61165 6.082206 7.779883 12.13193 23.35316 21.29264 29.19366 2.79847 18.80965 27.37499 4.595742 7.679711 19.12424 4.269415 3.072675 25.93127 25.05824 10.17747 14.90669 26.64663 1.455347 4.237265 10.3768 8.121642 5.510154 6.223773 19.76733 22.86398 22.95457 17.75903 2.903029 22.98493 18.48848 24.73868 5.131923 7.049048 15.07798 11.24068 28.03982 4.883083 13.58728 6.833313 2.902369 28.18355 18.02117 3.577701 28.88992 20.31007 25.93802 5.69658 13.97365 4.633417 23.80147 2.531571 5.308403 28.11292 4.689484 18.92546 15.68506 9.894631 26.87844 12.63181 18.43428 14.00071 15.32661 1.54773 20.47015 26.58593 23.92068 3.340667 24.19981 10.1895 11.06927 29.36979 7.867952 2.056351 22.86588 16.84097 8.631069 16.84758 7.171996 0.9038992 20.13651 24.65416 15.89781 20.39899 24.65635 3.812401 8.620809 21.48886
 24.40753 2.591986 22.28916 20.90407 7.99745 4.670045 11.74422 25.14278 10.70361 25.52625 27.506 26.42306 27.08427 24.14531 26.12389 11.37167 7.323498 4.85692 19.48734 23.74283 2.567434 28.0279 15.25628 8.703972 15.03814 9.268619 0.5943739 13.10342 24.23154 3.918264 3.013949 12.92328 18.73862 10.28876 25.07674 9.527808 21.92477 27.52435 15.12612 3.02421 8.718367 28.12763 9.224077 28.40065 3.318808 9.363636 2.012924 12.88374 21.62094 7.813997 7.941532 5.572412 11.48894 4.749329 5.465264 14.95112 4.9167 3.073411 7.985565 2.950654 22.7853 10.13162 14.84916 0.9524261 8.568955 8.386754 4.901665 19.84488 17.01001 12.63675 2.280719 21.97528 5.058879 20.60884 4.375592 24.58966 3.119535 2.402791 0.7789676 17.93501 16.46483 6.354931 26.46221 2.372587 12.22029 5.380103 27.97399 29.20305 21.2533 13.87119 23.6856 14.34705 20.99053 26.37091 10.04333 9.760863 10.53838 27.37631 24.22472 27.04604
 18.00693 28.81257 24.81035 23.15785 21.31115 13.3764 8.354742 18.16417 4.984756 4.352897 28.25127 13.89967 13.83517 7.739805 12.92124 24.10009 27.19482 8.013101 5.079939 25.44501 1.204128 23.6013 13.19456 10.4101 25.26276 15.54685 26.58552 23.58981 25.51821 7.136381 27.68859 22.85862 22.93992 6.354634 9.110022 19.78577 16.52278 26.70967 16.82837 12.41037 24.41021 14.37511 19.51573 13.67402 18.13187 26.79529 1.317517 11.59125 22.26648 1.277971 2.505397 1.34079 3.995373 10.97355 26.94565 27.29168 26.85653 23.06243 10.15428 9.1311 18.17193 11.40849 0.6714181 29.42667 4.749319 19.69613 3.574994 4.463305 27.31149 11.35936 13.56243 25.563 3.815329 21.26121 20.5809 6.877619 8.503337 10.76867 25.85397 26.79408 26.30624 4.670418 8.125867 5.315469 13.59051 23.50784 10.34932 8.98371 29.18805 27.91944 27.40015 5.327068 7.361471 13.00931 13.07633 27.7893 3.569743 17.69563 17.49253 5.244796
 11.58204 12.76274 9.100518 4.999894 20.58136 13.45665 29.30046 3.917914 26.23357 28.47017 6.516162 12.61015 26.30856 20.60305 21.9562 13.43814 11.26266 19.26036 23.2435 15.97457 28.06135 4.087695 9.83323 18.51605 23.95287 0.6004929 20.62961 27.76972 12.90244 13.69996 21.94036 13.95566 5.989208 22.72896 29.2144 1.039783 10.01177 5.293272 21.49153 28.05777 19.21939 11.02604 18.56158 25.90627 18.73246 10.54486 24.97563 17.99017 21.85839 3.804267 29.02419 5.606029 5.906459 20.054 1.197556 27.65434 24.33976 25.2079 8.891328 26.51616 7.225746 1.95722 9.738019 5.226218 20.18219 4.51365 16.21119 8.111139 19.58104 28.31709 13.32855 18.89633 27.60018 16.82148 6.944818 8.931952 25.35571 28.15568 1.473109 5.554895 2.04859 16.80313 26.90295 10.00074 8.12158 24.77908 12.90455 2.670403 25.35744 11.25426 17.3107 10.79628 14.56492 20.06918 14.29586 9.37054 9.891347 21.89188 2.733031 16.14577
 13.90266 18.97324 28.08533 15.34271 7.761115 8.412834 13.33936 7.304273 13.33134 25.01164 25.40227 8.525905 19.74318 27.23028 21.51525 25.70874 12.27586 1.954129 20.47239 12.47473 11.48778 20.82432 12.56872 28.68454 7.463077 26.75134 19.69406 3.825763 12.35658 18.88518 12.63191 15.46559 10.65415 14.92028 19.69922 5.156783 6.678447 6.17525 10.86319 26.69188 26.17048 17.63837 4.834743 12.22153 16.01852 10.23435 7.851472 6.095302 25.19544 3.85464 20.32502 22.88812 28.45313 11.64991 11.74256 17.72052 10.59406 5.521438 23.33499 8.657104 12.82316 0.9630013 9.312782 17.22618 9.068226 14.48427 6.398818 4.566316 0.6814402 1.783436 26.09242 5.08293 24.75845 10.11135 13.33428 12.85675 7.99978 22.74188 20.04221 25.14092 17.18165 20.09377 23.34078 11.8143 24.84321 23.95365 15.18914 26.54492 25.88612 27.74817 5.254895 25.78335 19.39551 24.8469 22.04069 18.57477 15.69378 10.26635 19.87265 6.276331
 16.02902 25.96962 24.67884 21.20892 16.61601 21.09431 24.91046 26.38862 27.75729 19.48408 9.914001 16.25379 6.752266 5.575669 8.712576 1.487342 7.193225 14.26086 16.01035 7.811159 25.4207 29.38383 27.76116 18.25664 17.39246 25.57902 6.529541 25.8787 27.20539 15.33734 6.570514 6.411859 14.28955 7.501433 24.8124 22.20958 18.07524 28.96335 9.388478 15.42191 13.11159 14.04748 25.70344 2.300324 16.93443 18.33292 23.00466 17.00053 6.1558 12.77257 1.946486 10.3863 28.34973 2.796479 7.549283 24.20725 8.444609 3.059503 12.15305 13.51303 7.042165 28.33803 18.4887 7.375641 3.028476 12.77074 26.79853 20.34699 28.65863 27.08883 7.03857 8.688442 17.05223 17.92538 8.507672 4.368226 21.32576 23.6838 20.31274 9.169445 0.6761612 25.95402 21.80437 12.4373 2.968309 28.96872 1.134406 5.264308 18.673 15.63966 21.56774 7.797428 0.5769122 1.373006 10.97904 17.4034 1.257146 2.053226 6.887472 17.92769
 15.31743 1.188039 21.3176 3.17461 13.27886 22.52252 18.78439 25.48925 14.16683 3.373803 8.220466 5.977194 10.70222 20.46481 12.5095 2.723459 12.30957 19.77126 19.11211 29.08878 25.83199 5.739697 27.36219 6.705388 27.58502 11.39461 16.67831 28.09255 11.38346 7.705936 18.97684 21.28198 26.31693 19.45147 12.88556 19.13321 4.289989 19.65556 13.12128 6.401608 8.414536 4.990944 22.25365 28.4962 6.194395 16.88136 15.87699 0.8482922 15.91996 11.88828 1.578702 6.723316 18.25878 8.901191 1.902246 26.06079 25.27769 25.3655 29.45232 18.34129 28.25068 5.623684 23.84926 6.105773 8.400569 4.964663 18.34454 4.020057 25.4061 24.06188 22.42243 1.945335 19.16189 21.24596 25.033 25.91649 23.15748 4.088244 18.85738 23.29815 28.50025 3.417473 6.896152 11.40351 5.734259 12.52218 3.696185 8.636375 5.662279 12.14568 25.15872 27.88404 23.34559 11.07586 6.716841 23.76142 8.462626 12.30363 7.232643 10.35476
 16.57839 26.70367 22.13818 27.66641 14.18413 23.97595 3.409971 29.0892 3.033786 24.55287 6.748397 14.69738 25.00722 15.285 15.95798 28.89109 27.04965 10.22903 20.90409 22.9488 25.76761 25.24091 22.03047 12.41563 26.67471 26.36693 9.238739 10.07219 4.219368 25.97704 15.53693 9.592898 9.457955 5.975632 8.115416 14.70124 1.520602 29.45978 5.479915 25.76783 1.546848 11.98155 5.324942 3.500546 16.84986 6.075375 18.16367 26.72823 27.08028 26.41613 13.49098 2.428142 21.43959 10.04911 2.003967 12.24121 17.00601 20.06501 20.84629 8.519475 3.729055 0.6706507 7.005002 23.02492 25.39389 10.81848 19.63605 25.13088 8.273276 7.315357 22.85796 13.01918 1.051443 14.79479 3.454501 26.80326 18.20197 11.18957 28.3603 5.899099 19.24025 14.56372 9.304032 2.366544 8.829325 17.81544 9.238998 16.10968 5.887331 7.703122 5.573367 3.633989 25.73475 16.05452 1.216225 3.898019 19.9915 24.13186 18.70798 20.34113
 29.00345 15.21354 13.49043 13.84147 8.7993 25.27327 13.05048 16.33726 4.92257 12.19255 2.343814 16.08752 20.2077 10.3179 4.897074 3.762844 15.38383 14.34174 15.38833 14.0844 16.62238 10.10511 16.17867 11.31701 29.40579 23.72978 2.749297 7.67335 2.105162 1.334363 8.44169 3.280877 7.499701 22.31679 8.311466 17.96131 18.93191 26.66334 20.94956 11.17964 6.294633 17.68271 9.110298 27.8532 19.76516 10.37927 6.18849 25.96555 20.23749 19.7605 7.913464 2.760346 26.49507 20.50841 29.44006 23.78852 19.29665 4.515552 5.654532 16.92508 9.838675 17.0037 17.28189 21.87049 11.02633 16.33837 8.816803 0.6733403 17.03895 22.33465 15.00575 26.14889 10.08478 2.552431 12.43323 19.18898 19.10795 1.964438 12.52386 5.339171 20.2359 7.828728 17.72905 2.252302 18.00463 17.30649 15.36041 5.566221 4.75531 27.44885 18.20045 14.62904 5.001941 16.55857 6.827388 19.99454 11.78505 2.162719 29.4121 28.55387
 16.00045 4.539796 17.58495 14.44794 24.27157 10.61269 1.807418 3.360154 17.10133 13.23286 22.2302 10.26721 24.87431 29.22338 7.145957 2.749442 16.67109 20.98566 10.69327 5.150826 19.24561 20.4724 8.740741 24.96142 13.90862 8.009882 5.765583 15.38553 6.672027 24.79901 28.5211 12.34821 20.88085 22.37911 28.90704 12.35149 17.41001 6.052216 25.91908 2.610585 20.77417 9.333099 8.664091 23.67669 23.63072 26.13016 23.70454 11.40613 15.11689 17.45646 25.98476 16.29333 22.75473 27.37715 10.55412 15.10226 23.0969 4.449729 8.211294 13.92538 7.746387 2.80489 7.386942 4.756489 20.55604 23.17282 10.40473 5.344595 11.22289 15.26146 7.371489 6.535093 24.05656 25.66225 23.21175 6.502029 18.89196 8.843074 18.64715 6.855833 24.94327 7.073199 19.05462 24.30828 18.94315 4.53132 17.60607 26.10073 8.460345 21.52418 24.79606 3.032918 8.041739 8.22432 19.00148 24.5124 15.29934 17.3585 24.27872 10.8727
 15.49194 22.99677 20.3279 4.992085 16.15414 18.81922 5.248796 11.29312 19.71329 6.501812 1.757346 12.53708 4.349924 1.107189 10.72604 8.194503 5.115851 0.5702574 5.788898 9.930938 16.043 8.849235 18.86818 21.99121 9.768752 22.28647 14.83921 15.57751 19.00743 9.184784 9.255965 4.868857 11.79572 5.155078 0.5028514 29.42063 2.366948 1.283828 9.488132 10.7507 27.59307 14.52082 27.72032 18.51038 17.30482 17.90485 24.51836 14.78053 23.82116 10.15987 19.91828 16.94267 3.226691 15.81869 27.95964 21.30229 21.64222 28.60272 18.41648 23.42256 27.37283 16.77503 5.028892 26.07832 10.04546 26.78791 23.16325 20.96635 27.03431 13.22134 17.40988 15.74629 4.441885 24.7679 8.38039 20.44346 4.138506 5.428813 6.019128 0.6503957 27.72196 4.159419 5.357501 27.47431 3.570897 22.44223 25.42122 25.94859 9.718587 21.79638 17.86391 3.688666 15.45187 19.04982 22.40188 25.1641 24.78914 4.933277 16.72625 10.41384
 23.22983 8.228428 21.24126 19.98399 12.45966 28.93274 5.827534 21.88095 1.91299 6.972063 26.66338 19.41699 9.826499 5.446185 15.15044 21.0892 11.84129 3.994475 4.400452 2.002905 26.18435 11.46886 8.593615 19.3049 27.24943 23.6752 1.951201 5.242698 1.344876 22.34175 22.12709 19.25116 22.49693 21.16852 28.95161 7.911145 16.89857 7.11262 5.670666 16.07663 25.27975 15.68971 23.34754 24.57521 11.25071 6.592186 9.071064 13.64323 18.7465 16.78961 11.47975 1.879298 16.99315 22.41084 26.25587 14.08157 9.483174 8.461233 13.17977 15.47158 4.995638 21.05362 12.93024 24.18996 24.51039 19.96418 5.892043 5.796724 20.58477 21.84096 20.54605 18.8426 25.56816 5.445389 5.598686 24.32075 18.99595 6.791389 1.973354 16.44053 15.84016 24.21695 21.45011 4.010692 2.213216 23.62054 12.77776 23.55747 20.74622 2.524719 8.095949 3.6206 13.49556 24.36025 15.31896 4.526483 24.89495 0.6104147 14.07724 29.02378
 13.02426 18.56266 24.67677 23.33511 17.58802 26.06164 5.493616 27.20395 13.70794 9.720323 18.84337 25.05009 20.6499 4.018698 11.18412 16.11341 1.305158 19.7124 14.7636 1.632155 16.8222 29.10101 13.8945 12.18672 21.04961 27.84461 14.91721 21.02617 6.140499 2.03052 8.137714 11.43258 19.83339 18.85995 11.34101 10.87442 15.57744 10.88229 1.242816 13.79658 20.42547 21.55605 13.60964 29.12055 1.660143 20.93541 19.40119 2.762416 28.60022 24.32286 16.3159 13.08027 9.620807 5.737616 23.85335 19.35485 9.793491 17.51768 8.526181 2.198468 3.681696 24.35838 28.16347 27.06587 22.19607 6.518979 22.9603 6.293195 14.77783 23.67671 3.666243 1.816178 7.623817 25.06484 25.30854 20.07352 5.474467 24.3562 11.67267 22.26816 18.60124 4.376906 22.23881 25.96406 10.03557 27.63524 23.57845 16.61796 11.35604 9.738866 16.97112 27.18324 23.04956 21.92278 0.7287018 4.995925 4.801272 29.12089 5.402194 15.25359
 23.20706 5.174811 26.01492 8.801295 28.32663 16.73815 28.98746 28.40937 29.30717 7.493797 18.13583 15.05019 0.7528114 21.09216 4.729095 26.21169 20.28319 22.63252 27.90451 20.00364 12.19331 4.973697 11.65825 3.514077 27.90324 27.74893 28.74974 13.83878 3.225488 11.3244 28.67287 13.42345 10.25828 14.06044 0.9892888 6.035757 10.66283 13.58172 10.07809 24.5383 15.1207 17.73476 5.340412 4.089921 0.718175 15.21827 23.61652 9.179277 14.76641 7.772022 8.501619 6.548468 17.76083 12.64414 3.632378 23.97339 1.872581 13.12766 29.05003 25.90671 11.01916 24.96932 26.57846 22.81032 15.86806 17.34657 14.96002 29.31832 18.73308 4.637704 21.62251 24.0444 15.9996 29.29846 5.645623 22.91377 14.04612 22.73857 17.90249 26.01263 24.13941 11.32742 10.48218 8.648669 14.71127 28.20217 22.78224 6.740809 21.8998 28.25847 23.54221 25.86365 14.58208 26.48391 6.678146 20.74344 15.1143 23.62947 24.08944 12.688
 8.600492 23.4329 24.41459 25.22424 3.462145 25.55857 27.91942 29.00037 27.09973 9.237329 25.10913 10.71724 7.248047 4.510197 17.93418 21.27635 16.14574 26.14326 23.80267 24.00393 28.4528 6.526211 25.52692 13.89149 26.13012 18.27341 19.94826 19.73978 24.03221 15.22622 3.65145 3.575329 5.424906 21.19311 28.94621 19.93017 3.740587 7.385884 26.75887 23.13976 27.15262 9.780769 16.35026 27.7886 4.804252 23.58493 28.07695 29.05103 27.95324 27.88535 0.4807435 18.68231 21.93486 15.59341 9.529965 19.71177 7.436164 17.77548 29.12878 18.13863 19.59338 9.59452 21.32922 26.4424 19.25862 19.84465 28.99933 5.815379 6.768697 3.335502 26.79364 2.584623 8.826114 23.99415 22.53026 3.573006 24.06449 9.725937 18.48371 11.60146 2.577612 12.59932 3.824318 26.98536 14.99895 9.389052 2.244596 1.652521 25.73565 19.906 11.65032 22.56728 12.80386 12.56999 16.39021 16.26719 6.667084 13.26741 28.30332 1.320172
 4.321797 12.03265 22.52611 4.537107 4.894747 24.81423 2.407033 28.69195 2.602465 20.23253 21.14338 0.4695979 17.01646 19.95593 24.37446 15.01265 5.368757 16.68169 4.431196 14.06718 4.399215 28.77215 23.84881 14.15581 7.241275 23.00117 26.56119 2.380545 11.23956 1.773919 18.67299 21.44413 22.63712 24.43389 5.11972 2.46702 0.5101216 17.40808 22.02949 16.4154 9.447861 28.41446 26.94277 19.40948 27.33074 27.63613 10.71873 14.80495 15.51518 23.01408 24.67262 5.59274 24.39294 20.74906 26.39143 6.726597 17.30446 4.554316 27.25814 9.320122 28.318 28.59609 10.91674 15.27253 16.00419 12.48887 27.33036 4.482198 9.967651 3.973898 1.265657 23.50156 26.91053 1.96997 22.09261 20.40673 20.28268 16.96088 19.35959 27.0417 27.4864 6.358678 1.296619 5.505985 17.38405 28.23119 14.28681 24.02823 6.693748 25.48534 6.317968 8.222537 17.0684 1.968621 6.915609 27.07602 6.632385 16.19325 10.26394 9.408813
 11.87125 20.76647 14.39278 21.93649 14.81679 26.25092 19.19946 24.25123 12.49021 10.58931 9.280096 23.66938 18.14663 15.94149 27.42492 19.13499 5.755755 28.16836 24.4639 11.23268 11.14062 0.490527 22.82539 4.05563 29.0971 11.11337 2.972776 5.073644 22.87734 27.25106 19.10837 27.20386 14.9125 11.81379 1.942977 18.7868 18.22281 0.94881 23.62757 14.3665 27.80326 15.27735 14.85752 14.81548 19.27464 12.29609 9.60357 18.81508 28.97311 16.56947 29.01105 19.89078 1.067211 18.09858 1.199904 12.00136 26.67513 17.19194 21.35388 21.97229 13.34387 1.834394 25.48982 3.109803 0.945225 17.74835 26.04135 5.50108 9.940967 3.534806 21.80135 6.049402 5.630764 16.51284 22.78902 28.55188 24.01619 19.58332 7.268551 20.37157 8.975241 11.24862 29.40903 27.93672 1.710599 19.36166 22.28684 18.65885 9.157266 17.04636 27.97424 21.29231 12.28104 21.82323 26.35194 15.05823 4.266522 11.75345 24.31805 17.32812
 4.364084 6.632627 7.676738 21.14156 9.95113 15.5905 14.64492 27.50203 26.89183 4.112278 2.547864 3.85417 15.40137 7.107902 17.021 20.75702 10.38185 0.8409909 4.648051 12.83388 3.528116 6.295127 13.71708 24.61655 28.29499 26.31575 26.55383 20.66532 14.39607 13.89416 6.728661 14.23799 17.97565 29.07881 3.942508 7.972847 16.17484 13.42956 25.25633 27.58804 22.84189 15.76858 7.828659 28.36244 25.26183 26.65495 8.691737 22.53572 17.17556 22.05575 24.46299 9.89301 2.537226 29.33911 22.83602 27.3985 24.3071 23.83624 18.62365 23.98494 20.32512 1.213376 27.47375 7.312425 29.36139 17.40768 23.6971 26.41965 25.10636 21.1913 13.27294 1.441857 0.7293724 3.995667 15.82679 10.25493 13.39297 9.959655 7.430975 20.29173 3.171567 12.23053 18.73519 7.456657 24.67062 9.64975 24.59602 21.27151 8.197625 24.3252 8.093605 7.599227 4.723844 10.20284 26.81842 5.750493 3.156429 12.89247 21.20503 15.118
 24.67071 7.046355 22.30413 28.41755 24.41388 25.62635 16.80278 11.62305 8.835316 9.606533 18.56773 1.631346 20.9666 12.73315 14.65321 12.63851 9.59937 29.15903 15.70764 8.338487 18.25857 8.914639 28.99227 28.69263 27.66744 23.05724 21.58836 11.52016 18.06524 11.25663 25.73085 3.215407 20.25589 13.98535 29.28756 27.00852 20.23734 0.515411 22.63007 14.51281 7.083671 12.56889 12.3586 21.80406 23.48796 2.659385 14.65162 25.80276 16.32763 18.66005 10.36254 14.57851 16.53439 4.275749 16.09803 19.20558 25.18068 11.07534 25.26411 11.38296 14.60738 8.284857 6.455459 1.989588 25.38462 10.20742 29.32928 10.64782 28.58846 14.08758 1.416444 17.4191 0.5942287 5.826756 6.131248 26.64227 5.27732 9.894787 12.08121 19.1413 11.43884 25.77439 11.86628 5.919924 19.23449 25.11183 6.218581 4.303499 7.962693 21.12006 18.0857 12.53961 5.064901 7.853415 22.52556 1.415435 16.57558 7.822426 14.71062 7.653472
 2.600785 25.9418 8.199862 7.962247 13.4614 26.52402 7.484777 0.6685833 25.78172 27.37735 16.33721 25.52081 8.510715 21.01348 18.70533 28.32332 5.806432 1.613466 26.25306 14.34177 6.708613 26.0815 23.56538 9.951825 18.92663 1.273743 14.06054 26.21976 3.878552 29.39985 13.99619 9.814109 7.697028 5.354724 27.37689 15.28615 3.468122 8.523149 1.203956 14.44976 28.3085 27.1077 21.20329 18.21115 3.875479 27.52193 25.33634 25.87091 17.83841 3.633501 19.45498 4.198898 12.56774 7.893794 17.40902 1.487363 22.11534 22.46399 19.4401 3.162351 1.9168 8.284007 20.73178 17.94412 25.74161 5.714384 24.26933 12.11135 4.135596 6.979378 27.70242 4.183459 10.17968 8.567414 7.826395 22.68815 12.17169 9.231161 25.03406 11.72903 9.164149 26.11934 11.93336 28.79109 27.62466 5.070899 8.894501 8.562366 18.00428 12.43075 2.039457 1.884597 8.011265 11.44017 8.252264 27.62568 27.64186 14.57041 1.655172 27.15294
 15.33127 7.24886 16.59443 13.27791 13.68196 0.637003 25.05642 14.26454 4.816739 17.94402 26.38831 3.683477 29.11061 23.77598 18.08611 0.9356282 8.064134 16.75051 28.32364 14.22445 10.27594 10.06893 1.604709 23.73249 27.23014 18.88039 23.80432 3.758744 8.240818 9.96632 3.18914 16.40966 17.2856 1.976403 17.86386 14.52628 25.07099 13.76727 7.683348 17.85414 2.043993 15.9779 19.7475 15.70552 0.8849095 7.758729 20.19151 7.786711 2.523222 26.70829 13.89876 9.286405 3.855065 19.50514 23.66697 11.77841 18.35286 18.51809 14.73558 5.264598 6.920608 24.1691 8.186545 24.84282 14.20747 28.84849 25.01008 11.55588 15.8095 11.257 20.89144 19.86342 4.761858 11.40716 12.09498 19.71259 16.53119 3.063133 14.85514 4.255853 22.63804 22.3845 26.84288 9.714296 16.55542 2.073699 21.55645 21.07729 7.50414 10.89977 10.18435 15.61435 14.67949 29.30872 8.859505 26.20856 18.9272 11.89736 6.149201 20.51441
 10.81699 2.591917 10.61751 11.38327 15.50895 7.070316 9.672283 10.7794 8.649623 15.5283 28.93938 27.47392 3.618916 29.31222 18.32141 27.10485 12.81648 0.5500404 11.42298 8.73586 27.90178 10.40842 8.483134 14.4732 6.394317 1.919825 0.5034979 21.46531 16.90452 2.817266 15.31846 4.382171 21.49363 9.888018 10.8938 15.3272 13.55547 18.86861 13.30436 2.637737 21.7388 12.20169 3.565089 19.36714 12.83826 22.48427 13.5625 11.66997 25.35744 18.33795 21.25957 23.54691 14.01308 1.891349 3.064163 9.459324 0.824995 9.638853 25.34492 29.2422 7.94211 12.18617 10.82765 2.788597 26.30437 2.107312 19.82767 13.07663 21.76722 24.80021 17.9228 0.5744093 26.71552 14.13763 3.201627 6.63708 22.04836 24.92448 9.478642 28.25921 23.70317 5.802125 29.07974 7.883398 13.84478 4.386652 0.6058686 28.03231 11.81029 20.09663 7.760644 15.04057 20.36624 10.23846 14.87028 1.600284 12.47279 9.786881 5.651808 8.531699
 5.444812 9.061129 26.92999 25.77014 3.825624 11.76455 18.12161 22.58489 9.274844 23.42277 15.20473 4.283351 18.17374 27.00164 1.739501 11.97779 21.84659 23.25603 4.598003 22.91093 3.112898 1.879069 5.778678 15.606 6.376579 22.95127 6.383863 14.14186 3.9785 21.84004 18.58447 7.993827 4.090488 28.89284 25.8661 16.24985 11.30015 27.65988 22.42702 4.813631 24.9623 17.69985 2.491489 14.19992 14.62554 26.82751 2.229713 14.22715 28.9856 27.10738 26.65993 17.15598 13.20444 3.864499 3.834239 9.120956 23.7947 1.329637 5.987932 0.5305045 4.571916 22.44441 11.37659 24.03322 17.89301 22.49118 1.310399 5.048356 23.88411 19.30558 22.82247 12.54475 25.21845 23.79802 2.277193 25.46182 15.29227 17.38297 15.61967 25.15895 27.01366 22.83168 4.055437 12.48001 5.005287 11.56676 7.802057 0.5595508 15.54048 12.9007 23.0692 28.06637 12.30956 15.86716 4.551733 28.34689 18.71298 2.495776 2.598696 24.59087
 3.927349 19.77562 14.27938 0.9244999 18.07872 3.809155 15.79646 0.7455896 20.05013 24.23648 3.568481 27.10557 28.78046 18.52105 0.772935 19.61948 25.02682 9.477349 20.01891 21.13586 10.80652 13.45484 12.96115 15.32624 24.95276 26.92689 10.02459 28.8375 21.19989 22.13029 26.85416 16.58471 26.79111 5.734217 13.36937 16.65592 22.92955 22.93206 3.905573 22.6164 14.96874 3.583581 2.377178 21.31822 24.70959 6.368922 10.08823 7.926079 3.593548 20.42373 13.99705 13.28161 10.96721 11.64475 8.135207 13.82234 11.55763 12.37838 19.45617 11.04728 27.31767 27.52742 2.909722 12.91441 21.07572 4.552601 12.67374 14.94799 22.11533 3.62433 28.76846 2.484015 28.97105 10.90398 14.25636 29.29424 27.42535 26.83561 5.493336 9.95263 8.67311 19.9818 19.14815 9.714808 22.27331 6.271291 18.24164 18.07458 24.49893 28.02051 2.185224 11.19333 14.61901 27.4937 27.448 15.6177 14.19393 9.934623 8.743672 10.3538
 23.74397 2.889543 11.89707 15.4187 27.01229 12.71173 26.9268 7.538307 11.62801 6.167036 3.374311 6.68916 0.6474226 29.45381 24.49432 22.49459 1.379723 8.456791 29.12679 0.6761232 11.13562 13.41216 25.92606 2.871093 27.30531 20.60237 22.56564 2.8725 9.311846 20.40568 16.8214 9.415616 2.387877 26.20668 9.316668 1.962264 27.39375 6.108891 28.54203 24.44802 4.809109 1.400009 1.962264 27.82224 17.36582 29.40519 5.922216 4.388913 15.70329 7.290573 25.00566 26.52806 26.14299 2.415707 19.08503 9.115152 27.07466 5.99217 25.20773 5.108315 18.22138 5.135951 17.87276 18.32532 27.14425 14.37079 12.87111 16.09884 27.31619 26.27392 15.52564 3.730483 13.92059 20.57713 6.531041 28.05875 3.653013 25.41641 4.640909 17.20135 18.98582 14.82598 29.35685 17.57816 14.63179 13.27657 23.37875 18.05502 4.379236 11.39416 22.84585 26.00759 11.28764 18.52864 24.78528 8.743296 28.09857 1.983279 5.300234 4.969859
 1.471381 18.74269 25.66928 13.76305 7.58172 23.16594 20.46178 11.29648 11.38585 7.055288 18.35707 27.38328 3.721059 15.98048 10.86442 23.65313 16.87938 12.91554 23.00842 4.331059 13.44778 25.97532 4.863707 16.42653 23.53772 4.026086 4.993606 22.6038 27.43066 4.059848 5.900471 7.265755 23.55693 9.672957 19.85861 27.13513 10.13105 1.250018 20.16641 18.07364 22.59977 26.5832 15.69798 1.143505 5.45528 2.976333 0.4836025 8.80404 5.239887 6.861129 21.91277 7.365 4.553777 12.90155 9.041485 5.387062 13.19258 1.657139 21.27462 9.388457 19.78049 9.950906 3.634739 18.38106 19.02337 17.93755 27.92568 7.530141 2.993705 5.957357 6.860462 11.33198 5.479998 8.420188 18.60839 11.78806 26.98145 6.77742 23.79454 22.85029 15.29044 28.2369 28.21198 2.751178 18.16391 27.64108 26.46305 26.57838 10.9034 0.7383124 10.22171 21.79218 28.78314 26.03593 1.989512 12.52068 17.23687 26.0509 24.09961 15.38656
 7.560304 19.57044 24.18414 24.69856 1.37302 12.86282 6.717412 11.26738 20.11868 14.41976 19.41956 27.50261 2.318021 4.427459 19.85256 3.671014 20.00331 17.20065 7.706659 26.23678 24.78691 26.68296 15.38223 3.249262 24.04006 23.10718 10.95773 2.935125 3.178537 27.27621 7.318966 20.88084 24.33336 18.66324 17.80179 11.08064 13.36088 29.01213 28.23623 9.899384 23.14791 23.15103 21.83614 1.3474 8.419867 23.32118 1.994387 1.837152 18.45551 13.66309 25.24103 5.488088 9.732471 25.58694 13.8882 18.30226 21.77115 26.8793 12.06271 12.83935 8.152721 22.9173 22.77918 13.24104 17.23534 18.66965 18.65301 10.54094 9.000982 11.79251 19.56045 1.525349 20.58224 10.09572 8.65802 24.12038 14.17777 23.8659 6.118295 22.89699 16.30291 22.93222 0.7838247 7.568812 4.586657 25.38439 24.86456 1.97612 10.7821 10.32002 17.26002 21.62538 5.332803 19.41431 1.960801 6.517081 19.89868 13.58436 23.89628 18.92433
 19.62196 27.01462 3.649003 29.07132 22.49796 25.25115 5.947277 2.339983 12.97765 7.997077 20.58209 24.5839 21.14796 9.286512 13.57517 29.21634 8.777949 24.63616 14.97825 16.10785 9.995833 5.41291 8.324492 21.17055 9.491752 0.6458531 6.326676 17.74604 27.5347 2.416412 2.707096 8.836885 9.878736 2.92103 0.7488669 10.49313 12.9536 2.677096 29.36498 17.38647 2.605192 25.38945 19.81518 27.35873 28.21119 16.38651 29.41871 11.93334 12.91913 11.66679 6.696732 5.947844 13.75076 27.07171 16.33964 12.55511 18.87233 6.767539 8.974456 25.02888 11.62642 17.0095 28.91389 27.91656 26.57704 7.046898 10.81769 20.90954 2.045213 10.17764 4.950897 20.33834 9.711365 27.24378 18.61637 11.74932 9.154058 24.80975 0.9472681 4.35326 18.88651 18.8895 13.28234 16.02812 25.06636 20.01413 9.492999 28.38341 24.31597 2.007576 17.98916 10.39109 29.34229 7.65977 26.45026 8.020996 15.13185 27.12996 8.400752 27.6857
 18.90741 10.92218 8.035109 0.629833 18.93571 2.970874 17.50825 18.78104 21.45098 21.65801 1.621103 13.79977 13.82969 4.269122 28.57505 2.89681 7.022374 22.85297 25.78568 29.21775 19.16126 15.81849 15.09459 17.64157 21.39227 11.11018 3.015049 20.50473 14.27483 14.69882 9.763553 28.79295 9.16996 10.31165 22.17661 21.30511 13.48971 24.54816 24.25871 2.90174 14.81374 11.29963 7.832355 6.267246 29.15152 7.372377 27.80619 9.714045 24.95124 7.693059 20.08769 8.320399 25.35138 24.75528 21.40007 26.00671 11.8123 22.93563 2.119516 11.2524 2.585224 13.25865 16.47208 22.74644 20.17344 0.6982277 16.75018 6.333048 5.846755 28.70306 25.29914 6.065422 6.082704 24.04127 8.378181 12.07218 20.25695 28.71562 6.091364 23.14512 27.65492 26.81606 14.71239 1.49121 5.465392 28.16903 5.35462 12.08706 21.54631 23.38633 4.090761 5.380355 16.08608 10.72647 0.5179899 23.28444 9.952845 19.80283 20.67498 26.97587
 9.228084 14.2081 19.80018 28.69781 4.113025 0.6409925 22.55661 28.56207 22.87689 28.6698 14.27293 6.909808 18.93066 24.30592 21.73911 2.278396 2.201939 3.735589 25.33986 6.129035 4.550423 16.50491 18.74674 17.68367 4.280903 27.86092 15.41758 14.37806 26.33791 1.805368 17.95017 25.24256 18.09794 11.64543 1.842895 17.94802 6.619646 9.165421 24.75957 0.6706092 2.547127 27.96177 8.550246 11.03416 23.31059 19.54682 6.904242 12.97399 20.65862 17.49923 20.79222 28.66799 16.69466 4.022432 10.08803 8.007814 25.29372 20.72391 2.284342 13.23072 21.96827 25.68713 20.97472 23.05688 12.92583 11.65556 3.754533 1.819998 27.37707 7.544778 23.7014 22.2866 8.48181 1.811826 16.39626 7.338636 29.37621 19.25247 27.36806 15.46278 8.607402 6.68468 19.40171 26.24517 24.42469 6.513109 4.256358 11.74705 14.19903 8.447284 17.01095 5.37072 23.44472 20.02979 6.56241 19.2603 3.722898 3.473062 2.215021 3.20878
 15.13684 8.825055 13.89186 5.07585 1.756769 10.79108 0.5797263 19.40705 5.51023 6.115477 17.77374 1.420161 2.592301 23.71845 4.05851 14.50963 28.70809 18.97388 8.394336 28.32556 4.225307 11.33894 5.004126 0.5772579 28.91537 5.525296 17.94427 14.73039 5.837563 0.9363611 2.087486 24.95939 8.518061 25.01778 4.602653 7.06092 27.24877 25.56516 8.769704 25.7867 22.1516 16.09746 28.37661 16.59806 24.36072 0.6820037 28.94754 14.1549 27.3399 9.637381 27.87825 4.882115 5.521974 25.40884 25.90142 25.72931 8.635743 4.68518 12.36419 12.82349 23.8567 9.565808 9.536424 13.85839 10.34958 26.32533 7.813241 9.479368 20.84156 11.46974 27.69289 23.10591 4.613498 5.616297 28.23733 14.4441 21.13733 8.408168 25.56326 13.06157 16.53541 6.543514 12.73723 1.78427 14.89014 21.88683 18.1148 26.11055 22.72076 15.42457 18.22552 3.31655 23.08612 20.95181 18.8436 1.563145 0.9747795 22.58067 6.538961 21.28164
 16.89694 23.44637 8.170715 19.22232 28.46645 27.5551 15.03176 23.91134 7.037308 10.53302 15.22175 10.47235 14.68205 10.61568 14.46622 5.093049 7.322706 15.03022 19.40973 26.64061 2.305036 10.74195 25.63512 28.71168 13.64618 26.84036 2.926921 28.11088 18.44869 16.52681 11.27641 5.904824 29.04032 19.48395 16.88569 5.101408 21.27764 25.53979 20.37088 29.25575 28.25373 3.812436 2.889056 10.72632 13.70614 3.089566 12.2725 5.472465 5.770738 2.25124 12.45498 17.88729 5.730888 11.20654 7.077044 16.39253 15.36983 13.83192 2.836169 4.796774 22.83025 4.451251 15.27436 14.23466 0.6093257 25.0698 25.18754 13.93228 29.11134 9.754637 22.71122 22.27172 20.90245 29.06375 7.021243 10.9816 24.22771 19.39899 12.21155 26.42612 8.572402 1.549742 3.767591 6.135338 4.036136 26.81637 28.88843 13.28217 3.052451 17.2885 0.761053 28.16968 17.88047 8.258251 11.76982 22.7869 28.49908 5.541302 4.378358 11.93699
 12.84643 3.397505 1.401862 23.07734 0.9733655 14.05954 22.88907 15.43327 27.01431 15.56401 20.91098 6.362353 23.01273 18.3613 20.8732 15.05047 1.631536 4.04612 29.44084 22.8587 11.94486 18.583 9.247087 29.45476 25.77634 3.536171 19.1934 9.628523 8.869904 6.323544 16.89468 19.81983 13.54659 18.51723 18.91544 17.83026 20.90125 12.01953 19.71507 11.74664 3.826962 12.90248 22.07749 4.998532 3.687521 0.8471272 10.0597 1.124222 4.834712 21.60555 0.9552851 4.682618 17.52007 9.821815 23.99463 18.10112 10.55215 10.53327 8.269117 24.62117 16.61923 3.910119 2.972333 15.6412 27.62509 24.35046 22.11935 23.24446 3.794106 21.57282 17.80031 19.01643 11.90908 6.3983 13.1151 19.78696 11.75383 27.62386 21.62447 19.55693 1.806146 22.48591 5.306557 14.48468 17.13328 15.13289 24.02997 2.043889 6.858481 16.45132 16.47914 9.008619 20.10349 7.165769 8.068714 22.46803 22.03176 26.16495 25.79041 25.28278
 18.54489 24.33834 9.999377 6.737307 20.30083 13.60988 18.49438 20.94129 5.290108 25.33041 2.811521 11.34173 6.884893 17.77196 19.98609 4.70558 21.44951 12.87068 3.979205 21.42595 0.5341033 9.35165 17.61513 8.451056 17.37553 3.414188 22.94406 22.0711 8.131301 13.60222 4.513937 19.02288 24.95317 19.43162 21.79128 20.12572 17.57085 19.49791 26.11549 12.36 25.19483 8.267562 9.249324 20.56314 5.059684 18.47318 21.71528 2.862869 26.20326 5.56211 25.36887 10.8174 22.72058 9.909815 6.28842 20.91853 6.679546 15.51421 18.44426 18.89806 9.723043 15.43019 28.73391 20.46733 29.00281 8.027921 20.99366 22.61772 20.0373 3.31467 3.824152 8.074509 16.86605 20.75657 21.23081 15.51912 24.17689 14.53371 11.27554 17.8004 22.55258 22.07741 29.35765 9.464713 17.20154 22.90526 16.20085 1.327971 3.541402 0.5120714 3.935839 0.7444556 10.12733 24.74241 7.701729 13.76406 7.760254 0.7361898 14.00381 22.54933
 25.2658 14.89581 14.11204 0.9768641 5.561481 14.73643 25.49294 9.686491 27.51038 16.45034 16.66345 16.04899 14.69016 5.752363 23.36693 2.951432 13.10865 2.567776 3.720485 5.427475 9.739806 2.832564 4.791163 19.23767 27.39511 6.293807 24.5361 20.04541 8.707889 6.060651 9.737213 23.95893 16.17707 17.19174 9.932479 25.88558 18.15582 16.89544 20.3762 8.220725 6.712668 18.23006 10.32635 22.05828 15.14057 15.37409 15.50434 20.91677 27.7556 1.594193 6.751246 15.15854 28.81367 27.52568 23.13478 27.38972 28.91308 1.198905 28.77168 16.62418 4.158347 8.0929 6.122989 10.71917 9.911464 26.85377 3.853751 20.86809 15.83191 1.819366 8.911624 19.90468 13.42866 4.271974 28.05217 27.623 4.245921 13.83116 12.03667 7.290822 0.4839032 14.08706 18.51055 16.02625 28.43091 14.91527 4.157759 8.607063 17.10085 0.9567301 3.090506 12.00152 16.86251 20.78487 7.632128 9.407132 18.5858 25.85256 10.27796 26.01644
 11.39045 4.816396 27.52214 4.228449 5.395773 26.0701 8.002985 1.533234 1.928948 5.668547 9.054321 19.75432 8.766272 9.830509 16.66451 17.71848 23.52501 8.395245 18.2402 2.007904 11.58347 5.037317 14.22374 26.20003 12.87007 7.5641 14.84278 24.89768 5.394294 25.45642 28.87582 4.54529 1.363351 0.7050485 19.51074 6.016152 22.88417 19.13047 25.79773 12.63891 5.75458 17.32721 15.60187 8.71763 12.92782 10.97852 29.11181 24.49678 21.343 13.65628 20.8301 19.16863 25.38185 0.7655472 20.54472 16.12592 25.91904 5.868949 24.40034 14.09398 15.58746 4.764094 1.333416 6.816574 1.175722 27.05887 9.774632 25.62039 13.29623 5.176056 18.41653 27.47421 17.45755 7.926152 0.7309385 22.00379 28.01754 11.35789 27.36933 25.53329 22.3259 3.863708 20.19467 17.82044 27.33351 4.069113 24.79033 22.84545 20.30664 8.30619 10.96559 21.94245 4.648234 29.14761 24.63958 15.01989 10.50611 8.412904 12.36164 1.310589
 4.189294 23.65813 25.48843 13.886 26.23205 1.926227 26.97586 1.832416 27.85506 25.64863 4.488414 25.99154 7.847946 15.40452 3.819844 19.38473 10.29065 8.032426 14.10837 4.570699 2.281109 15.53743 4.813188 8.865693 25.88757 18.52078 17.31462 1.335732 15.38216 10.9859 1.441847 4.172711 17.58183 25.16993 8.416067 22.23693 2.525465 12.87703 25.07457 10.11663 27.46189 4.536343 3.541419 14.53856 21.9865 29.32698 28.05871 26.70844 17.02166 22.08397 9.388074 10.73817 27.68755 14.36379 20.54625 5.047754 7.951644 16.2873 24.67723 25.43818 5.540182 15.34519 23.73609 7.377477 8.22319 4.909678 16.59718 18.74624 28.33804 27.55086 28.20816 20.82437 20.84503 5.038973 5.06747 9.457043 8.35263 13.63759 13.5272 7.392359 20.32811 10.72635 27.8597 4.764962 20.13531 25.52166 23.60573 8.916239 4.317158 9.789118 16.23805 0.9401431 19.81206 10.01602 1.633075 25.49358 17.96896 7.395937 0.5426872 28.69447
 8.885509 15.85888 24.10419 28.25687 28.9506 12.30165 8.729225 26.13707 25.12352 19.26047 3.156989 22.8735 1.275742 18.51936 1.245803 13.56012 26.95221 14.97117 23.11739 8.694088 12.84196 15.99992 17.31049 27.50375 22.9458 7.218064 24.80553 10.70353 3.915629 10.43614 13.28987 9.34466 18.8358 5.110721 10.46439 7.708346 23.20667 11.272 19.6416 18.10895 11.87154 6.027733 21.65033 4.578823 2.048891 19.96458 0.7878384 10.14655 28.61018 11.69864 26.36828 2.276823 14.18572 19.38174 15.64515 21.96998 8.834901 14.23652 1.077603 26.97223 17.20578 20.54455 8.537386 1.712463 1.209217 24.53475 15.13849 20.68279 25.58829 24.26614 23.64955 19.70872 23.76259 5.887272 3.739008 23.01511 13.00291 13.18816 19.401 21.2734 13.68406 18.26395 25.60045 17.8501 7.609529 19.73523 7.173008 26.76572 23.56515 14.50047 25.8551 5.870263 8.609082 19.3335 6.085549 24.81718 8.559957 26.81754 15.16139 3.925662
 9.172982 4.02135 1.14541 6.800851 26.46041 16.9946 11.3357 1.049777 24.15033 3.626103 9.268777 14.60342 4.324079 12.66315 27.47181 11.87666 18.56532 26.34205 3.709332 11.87879 21.58596 27.33326 25.5831 21.03923 0.8604507 11.97958 7.212519 11.56968 18.91753 3.623842 0.7781137 25.4827 22.33999 8.477817 10.16901 9.375805 13.74959 13.32812 12.33498 22.99146 24.93661 6.883389 9.919014 20.03606 1.700138 24.64848 26.15393 15.63156 1.719467 25.92726 21.27593 8.302578 11.5425 20.09986 17.05484 11.41095 2.585307 3.799258 29.35422 25.225 0.841952 10.39698 8.625032 8.005737 6.654472 13.30046 7.866569 23.8527 27.33262 21.95536 25.08942 1.445359 4.304 10.35462 21.00287 14.30121 9.534159 19.17602 11.86478 18.10277 12.69104 5.756826 26.41009 5.877367 20.78123 5.123132 1.86056 14.87474 12.39518 14.22598 26.28858 27.0269 21.83588 1.273667 16.69448 23.55151 24.71383 15.85239 24.83131 23.09479
 18.52731 16.50978 16.88982 7.529394 11.52798 3.133516 3.246731 16.62085 12.5445 16.73943 12.33807 10.64404 15.99087 8.692467 28.9272 1.245627 19.11451 18.69333 4.93646 25.18993 24.00455 27.86977 16.37538 24.55795 24.01482 23.64541 0.5528061 4.906643 5.559082 13.61048 15.79968 12.23178 4.078195 14.31308 2.74844 26.61451 17.07232 7.045999 8.298627 20.38064 21.87999 2.37146 26.1588 9.655147 3.11744 14.0385 2.515481 19.64397 14.63649 25.97004 16.13887 6.410939 24.46065 24.01712 17.98955 29.03873 11.48873 14.39919 1.845069 27.01038 7.703257 21.23381 28.78887 8.86895 23.26028 26.54863 10.07818 12.78662 26.00781 25.22142 12.82743 24.35487 28.26744 13.56627 16.64858 25.31953 28.54119 4.844074 19.20686 17.75362 24.9917 24.69146 3.285395 21.33344 19.94652 0.7718564 3.620091 26.57784 6.0607 23.09368 19.429 27.81396 8.290088 23.97322 18.96497 24.52917 27.4902 27.88691 8.470737 22.88409
 18.69287 23.06113 0.5980211 0.7347689 8.50306 23.0009 16.03568 13.72764 17.72285 24.84219 10.3876 5.9741 29.03101 23.23257 25.51915 19.95215 22.38217 25.5123 1.021941 2.646708 4.34469 27.73358 28.87332 16.69429 15.21987 9.76225 3.644965 23.2743 8.158055 14.19887 28.76808 0.7375899 10.61852 20.11598 27.40273 16.05759 1.485444 2.095555 25.7867 11.49247 20.15918 11.58375 16.68593 21.30257 17.94467 3.483689 19.61609 1.783927 8.536286 3.997057 16.70817 10.56381 29.08217 7.162012 25.08656 18.85797 17.01715 28.38342 6.323064 14.7482 21.9766 28.29299 21.40302 24.99956 10.98551 26.7248 7.522211 6.159976 24.82514 19.99343 5.429722 22.36781 23.27157 24.37594 3.141927 23.9567 17.10608 19.58666 18.08589 17.56602 28.08836 13.20625 8.217351 26.31416 21.32199 1.486751 9.6747 6.530751 3.793211 22.494 19.99092 9.374045 26.35167 6.73254 26.00577 15.22226 16.92808 28.21161 9.506776 2.300894
 17.3517 14.21114 27.43118 0.9896933 27.47061 25.60519 14.14705 12.67096 3.014433 13.96215 25.25529 5.859405 0.4756063 21.06874 21.34995 24.46562 15.16053 18.37038 11.77636 1.80757 12.3561 28.17891 12.45504 16.27377 9.468112 2.941168 17.348 3.124105 23.11674 0.5408619 16.3651 13.16825 26.16512 14.24047 25.1354 15.56601 22.92744 5.007275 14.4644 29.30069 10.24012 20.15439 8.780259 20.06506 20.0819 18.78181 2.552379 2.219536 14.34308 11.65657 14.34042 15.87036 22.49043 7.135219 28.58947 2.059757 4.595998 17.89646 21.6628 28.79386 12.38388 17.20945 10.81491 11.39549 14.0553 26.0638 26.75062 10.42189 24.63323 14.68939 19.16491 12.48165 18.56127 7.790766 26.89547 8.207965 6.927076 26.09861 17.62776 6.369855 16.32755 17.09418 13.8558 28.84398 2.442859 21.8005 10.7169 19.89378 1.814025 2.830856 19.27244 16.08191 5.782647 8.629005 7.181828 12.17996 12.28575 8.844851 20.07358 26.51001
 28.44741 4.982121 21.97182 23.074 24.64068 5.20279 11.10866 6.900865 23.99564 25.14503 5.119509 9.072617 23.13301 3.752881 29.32584 7.248566 15.12633 9.427035 2.644952 25.21777 17.29071 4.645884 18.72035 22.17021 7.710389 17.45524 29.43983 9.22062 4.956577 13.81298 3.653628 28.04515 20.53587 17.0015 15.42399 13.66832 9.450702 6.263851 14.60993 29.10711 17.21604 20.79231 17.40409 29.19563 12.63739 22.71082 14.88385 0.7849863 22.91745 5.854606 2.268332 4.042445 25.24406 12.09363 5.382509 21.4398 5.185093 6.887921 12.89112 10.13224 21.72288 9.052925 12.71918 7.331612 26.92313 10.4494 5.130108 22.07182 18.41925 11.47455 11.62193 21.21334 22.90121 17.31483 0.9574008 15.64295 20.46606 17.59539 18.21408 1.565406 4.425713 15.92143 12.4681 18.67687 28.88498 26.96636 4.892753 18.81281 14.62651 21.0627 27.05118 4.444651 10.41593 15.3845 6.885757 11.04516 9.368621 28.01801 2.225399 21.54389
 17.31107 8.544711 19.1088 8.22664 11.60776 25.12451 6.185503 13.87788 22.92834 27.26747 4.920675 10.35907 8.841566 7.077818 21.79898 26.76681 26.99537 4.441591 7.111452 17.42363 2.752 7.886835 12.33478 14.19112 29.23521 10.62457 27.8424 20.595 5.423008 14.46968 5.063169 18.5908 9.020421 2.415538 28.09898 23.4659 21.46449 28.14208 1.738889 8.657595 9.970898 29.32975 19.3464 0.716889 29.44619 6.622754 23.91396 14.0368 10.69753 24.882 13.38478 7.925754 20.82752 1.506681 17.61068 5.936242 26.55206 2.883884 10.94133 7.53197 21.50361 20.16858 19.91187 1.928869 15.50075 22.15832 3.207404 21.93695 24.45233 16.98677 8.939934 2.716894 23.59649 14.63341 2.900806 5.705167 9.051798 27.58809 9.647838 24.34934 9.978361 3.110616 11.22468 26.20292 3.337635 8.307733 14.09081 15.75951 12.98996 19.95867 26.36589 0.6740006 29.2459 19.15704 7.810979 21.87591 13.08549 27.61522 14.80013 13.89224
